<?xml version="1.0" encoding="UTF-8"?>
<session version="1.0">
<refactoring accessors="true" comment="Delete element from project &apos;jsf-livraria&apos;&#x0D;&#x0A;- Original project: &apos;jsf-livraria&apos;&#x0D;&#x0A;- Original element: &apos;javax.faces-2.1.14.jar&apos;" description="Delete element" element1="WebContent/WEB-INF/lib/javax.faces-2.1.14.jar" elements="0" flags="589830" id="org.eclipse.jdt.ui.delete" resources="1" stamp="1493255597779" subPackages="false" version="1.0"/>
</session>