127.0.0.1 - - [25/Sep/2017:13:52:20 -0300] "GET / HTTP/1.1" 404 1081
0:0:0:0:0:0:0:1 - - [25/Sep/2017:13:53:22 -0300] "GET /casadocodigo/livros/form.xhtml HTTP/1.1" 404 1111
0:0:0:0:0:0:0:1 - - [25/Sep/2017:13:53:22 -0300] "GET /favicon.ico HTTP/1.1" 404 1092
0:0:0:0:0:0:0:1 - - [25/Sep/2017:13:53:42 -0300] "GET /jsf-livraria/livro.xhtml HTTP/1.1" 200 4814
0:0:0:0:0:0:0:1 - - [25/Sep/2017:13:53:42 -0300] "GET /jsf-livraria/javax.faces.resource/jsf.js.xhtml;jsessionid=DC5A7354D32B292C29B91F11C1B2927D?ln=javax.faces HTTP/1.1" 200 42359
0:0:0:0:0:0:0:1 - - [25/Sep/2017:13:53:53 -0300] "POST /jsf-livraria/livro.xhtml;jsessionid=DC5A7354D32B292C29B91F11C1B2927D HTTP/1.1" 200 4832
0:0:0:0:0:0:0:1 - - [25/Sep/2017:13:53:58 -0300] "POST /jsf-livraria/livro.xhtml HTTP/1.1" 200 373
0:0:0:0:0:0:0:1 - - [25/Sep/2017:13:53:59 -0300] "POST /jsf-livraria/livro.xhtml HTTP/1.1" 200 373
0:0:0:0:0:0:0:1 - - [25/Sep/2017:13:54:01 -0300] "POST /jsf-livraria/livro.xhtml HTTP/1.1" 200 406
0:0:0:0:0:0:0:1 - - [25/Sep/2017:13:54:04 -0300] "POST /jsf-livraria/livro.xhtml HTTP/1.1" 200 373
0:0:0:0:0:0:0:1 - - [25/Sep/2017:13:54:20 -0300] "POST /jsf-livraria/livro.xhtml HTTP/1.1" 200 4832
0:0:0:0:0:0:0:1 - - [25/Sep/2017:13:55:48 -0300] "GET /jsf-livraria/livro.xhtml HTTP/1.1" 200 4725
127.0.0.1 - - [25/Sep/2017:14:02:56 -0300] "GET / HTTP/1.1" 404 1081
0:0:0:0:0:0:0:1 - - [25/Sep/2017:14:03:27 -0300] "GET /jsf-livraria/livro.xhtml HTTP/1.1" 200 4764
0:0:0:0:0:0:0:1 - - [25/Sep/2017:14:03:30 -0300] "POST /jsf-livraria/livro.xhtml HTTP/1.1" 500 3801
0:0:0:0:0:0:0:1 - - [25/Sep/2017:14:03:37 -0300] "GET /jsf-livraria/livro.xhtml HTTP/1.1" 200 4764
0:0:0:0:0:0:0:1 - - [25/Sep/2017:14:03:40 -0300] "POST /jsf-livraria/livro.xhtml HTTP/1.1" 500 3801
127.0.0.1 - - [25/Sep/2017:14:05:07 -0300] "GET / HTTP/1.1" 404 1081
0:0:0:0:0:0:0:1 - - [25/Sep/2017:14:05:54 -0300] "GET /jsf-livraria/livro.xhtml HTTP/1.1" 200 4765
0:0:0:0:0:0:0:1 - - [25/Sep/2017:14:05:57 -0300] "POST /jsf-livraria/livro.xhtml HTTP/1.1" 200 791
127.0.0.1 - - [25/Sep/2017:14:07:15 -0300] "GET / HTTP/1.1" 404 1081
0:0:0:0:0:0:0:1 - - [25/Sep/2017:14:07:26 -0300] "GET /jsf-livraria/livro.xhtml HTTP/1.1" 200 4763
0:0:0:0:0:0:0:1 - - [25/Sep/2017:14:07:32 -0300] "POST /jsf-livraria/livro.xhtml HTTP/1.1" 302 -
0:0:0:0:0:0:0:1 - - [25/Sep/2017:14:07:32 -0300] "GET /jsf-livraria/autor.xhtml HTTP/1.1" 200 790
127.0.0.1 - - [25/Sep/2017:14:08:35 -0300] "GET / HTTP/1.1" 404 1081
0:0:0:0:0:0:0:1 - - [25/Sep/2017:14:08:52 -0300] "GET /jsf-livraria/livro.xhtml HTTP/1.1" 200 4764
0:0:0:0:0:0:0:1 - - [25/Sep/2017:14:08:53 -0300] "GET /jsf-livraria/livro.xhtml HTTP/1.1" 200 4764
0:0:0:0:0:0:0:1 - - [25/Sep/2017:14:08:55 -0300] "POST /jsf-livraria/livro.xhtml HTTP/1.1" 302 -
0:0:0:0:0:0:0:1 - - [25/Sep/2017:14:08:55 -0300] "GET /jsf-livraria/autor.xhtml HTTP/1.1" 200 791
0:0:0:0:0:0:0:1 - - [25/Sep/2017:14:09:02 -0300] "POST /jsf-livraria/autor.xhtml HTTP/1.1" 302 -
0:0:0:0:0:0:0:1 - - [25/Sep/2017:14:09:02 -0300] "GET /jsf-livraria/livro.xhtml HTTP/1.1" 200 4809
127.0.0.1 - - [25/Sep/2017:14:30:27 -0300] "GET / HTTP/1.1" 404 1081
0:0:0:0:0:0:0:1 - - [25/Sep/2017:14:32:05 -0300] "GET /jsf-livraria/livro.xhtml HTTP/1.1" 200 4289
0:0:0:0:0:0:0:1 - - [25/Sep/2017:14:32:05 -0300] "GET /jsf-livraria/javax.faces.resource/logo.png.xhtml?ln=img HTTP/1.1" 200 12682
127.0.0.1 - - [25/Sep/2017:14:34:25 -0300] "GET / HTTP/1.1" 404 1081
0:0:0:0:0:0:0:1 - - [25/Sep/2017:14:34:43 -0300] "GET /jsf-livraria/livro.xhtml HTTP/1.1" 200 4291
0:0:0:0:0:0:0:1 - - [25/Sep/2017:14:34:48 -0300] "POST /jsf-livraria/livro.xhtml HTTP/1.1" 302 -
0:0:0:0:0:0:0:1 - - [25/Sep/2017:14:34:48 -0300] "GET /jsf-livraria/autor.xhtml HTTP/1.1" 200 956
127.0.0.1 - - [25/Sep/2017:14:44:53 -0300] "GET / HTTP/1.1" 404 1081
127.0.0.1 - - [25/Sep/2017:14:46:21 -0300] "GET / HTTP/1.1" 404 1081
0:0:0:0:0:0:0:1 - - [25/Sep/2017:14:46:43 -0300] "GET /jsf-livraria/livro.xhtml HTTP/1.1" 500 10433
127.0.0.1 - - [25/Sep/2017:14:51:46 -0300] "GET / HTTP/1.1" 404 1081
0:0:0:0:0:0:0:1 - - [25/Sep/2017:14:51:52 -0300] "GET /jsf-livraria/livro.xhtml HTTP/1.1" 500 10433
127.0.0.1 - - [25/Sep/2017:14:52:42 -0300] "GET / HTTP/1.1" 404 1081
0:0:0:0:0:0:0:1 - - [25/Sep/2017:14:53:14 -0300] "GET /jsf-livraria/livro.xhtml HTTP/1.1" 200 8398
127.0.0.1 - - [25/Sep/2017:14:55:49 -0300] "GET / HTTP/1.1" 404 1081
0:0:0:0:0:0:0:1 - - [25/Sep/2017:14:56:02 -0300] "GET /jsf-livraria/livro.xhtml HTTP/1.1" 200 8398
0:0:0:0:0:0:0:1 - - [25/Sep/2017:14:56:06 -0300] "POST /jsf-livraria/livro.xhtml HTTP/1.1" 200 8097
0:0:0:0:0:0:0:1 - - [25/Sep/2017:14:56:10 -0300] "POST /jsf-livraria/livro.xhtml HTTP/1.1" 200 7827
0:0:0:0:0:0:0:1 - - [25/Sep/2017:14:56:12 -0300] "POST /jsf-livraria/livro.xhtml HTTP/1.1" 200 7545
0:0:0:0:0:0:0:1 - - [25/Sep/2017:14:56:15 -0300] "POST /jsf-livraria/livro.xhtml HTTP/1.1" 200 7268
127.0.0.1 - - [25/Sep/2017:15:00:25 -0300] "GET / HTTP/1.1" 404 1081
0:0:0:0:0:0:0:1 - - [25/Sep/2017:15:00:39 -0300] "GET /jsf-livraria/livro.xhtml HTTP/1.1" 200 10008
0:0:0:0:0:0:0:1 - - [25/Sep/2017:15:00:43 -0300] "POST /jsf-livraria/livro.xhtml HTTP/1.1" 500 4081
127.0.0.1 - - [25/Sep/2017:15:01:50 -0300] "GET / HTTP/1.1" 404 1081
0:0:0:0:0:0:0:1 - - [25/Sep/2017:15:02:32 -0300] "GET /jsf-livraria/livro.xhtml HTTP/1.1" 200 10006
0:0:0:0:0:0:0:1 - - [25/Sep/2017:15:02:46 -0300] "POST /jsf-livraria/livro.xhtml HTTP/1.1" 500 3999
127.0.0.1 - - [25/Sep/2017:15:06:55 -0300] "GET / HTTP/1.1" 404 1081
0:0:0:0:0:0:0:1 - - [25/Sep/2017:15:07:30 -0300] "GET /jsf-livraria/livro.xhtml HTTP/1.1" 200 10006
0:0:0:0:0:0:0:1 - - [25/Sep/2017:15:07:36 -0300] "POST /jsf-livraria/livro.xhtml HTTP/1.1" 200 10051
0:0:0:0:0:0:0:1 - - [25/Sep/2017:15:07:41 -0300] "POST /jsf-livraria/livro.xhtml HTTP/1.1" 200 10093
0:0:0:0:0:0:0:1 - - [25/Sep/2017:15:07:45 -0300] "POST /jsf-livraria/livro.xhtml HTTP/1.1" 200 10062
127.0.0.1 - - [25/Sep/2017:15:11:08 -0300] "GET / HTTP/1.1" 404 1081
0:0:0:0:0:0:0:1 - - [25/Sep/2017:15:11:32 -0300] "GET /jsf-livraria/livro.xhtml HTTP/1.1" 200 10006
0:0:0:0:0:0:0:1 - - [25/Sep/2017:15:11:36 -0300] "POST /jsf-livraria/livro.xhtml HTTP/1.1" 200 10071
0:0:0:0:0:0:0:1 - - [25/Sep/2017:15:11:42 -0300] "POST /jsf-livraria/livro.xhtml HTTP/1.1" 200 9492
0:0:0:0:0:0:0:1 - - [25/Sep/2017:15:11:48 -0300] "POST /jsf-livraria/livro.xhtml HTTP/1.1" 200 9431
127.0.0.1 - - [25/Sep/2017:15:12:57 -0300] "GET / HTTP/1.1" 404 1081
0:0:0:0:0:0:0:1 - - [25/Sep/2017:15:13:16 -0300] "GET /jsf-livraria/livro.xhtml HTTP/1.1" 200 9994
0:0:0:0:0:0:0:1 - - [25/Sep/2017:15:13:25 -0300] "POST /jsf-livraria/livro.xhtml HTTP/1.1" 200 10043
0:0:0:0:0:0:0:1 - - [25/Sep/2017:15:13:32 -0300] "POST /jsf-livraria/livro.xhtml HTTP/1.1" 200 9379
0:0:0:0:0:0:0:1 - - [25/Sep/2017:15:14:00 -0300] "POST /jsf-livraria/livro.xhtml HTTP/1.1" 200 10069
0:0:0:0:0:0:0:1 - - [25/Sep/2017:15:14:03 -0300] "POST /jsf-livraria/livro.xhtml HTTP/1.1" 200 415
0:0:0:0:0:0:0:1 - - [25/Sep/2017:15:14:05 -0300] "POST /jsf-livraria/livro.xhtml HTTP/1.1" 200 452
0:0:0:0:0:0:0:1 - - [25/Sep/2017:15:14:06 -0300] "POST /jsf-livraria/livro.xhtml HTTP/1.1" 200 9381
0:0:0:0:0:0:0:1 - - [25/Sep/2017:15:14:09 -0300] "POST /jsf-livraria/livro.xhtml HTTP/1.1" 200 10136
127.0.0.1 - - [25/Sep/2017:15:22:16 -0300] "GET / HTTP/1.1" 404 1081
0:0:0:0:0:0:0:1 - - [25/Sep/2017:15:22:29 -0300] "GET /jsf-livraria/livro.xhtml HTTP/1.1" 200 10103
0:0:0:0:0:0:0:1 - - [25/Sep/2017:15:22:38 -0300] "POST /jsf-livraria/livro.xhtml HTTP/1.1" 200 10374
0:0:0:0:0:0:0:1 - - [25/Sep/2017:15:22:46 -0300] "POST /jsf-livraria/livro.xhtml HTTP/1.1" 200 10354
0:0:0:0:0:0:0:1 - - [25/Sep/2017:15:22:50 -0300] "POST /jsf-livraria/livro.xhtml HTTP/1.1" 200 10344
0:0:0:0:0:0:0:1 - - [25/Sep/2017:15:22:53 -0300] "POST /jsf-livraria/livro.xhtml HTTP/1.1" 200 10783
0:0:0:0:0:0:0:1 - - [25/Sep/2017:15:22:56 -0300] "POST /jsf-livraria/livro.xhtml HTTP/1.1" 200 10583
0:0:0:0:0:0:0:1 - - [25/Sep/2017:15:23:02 -0300] "POST /jsf-livraria/livro.xhtml HTTP/1.1" 200 10360
0:0:0:0:0:0:0:1 - - [25/Sep/2017:15:23:04 -0300] "POST /jsf-livraria/livro.xhtml HTTP/1.1" 200 9494
0:0:0:0:0:0:0:1 - - [25/Sep/2017:15:23:09 -0300] "POST /jsf-livraria/livro.xhtml HTTP/1.1" 200 10585
0:0:0:0:0:0:0:1 - - [25/Sep/2017:15:23:14 -0300] "POST /jsf-livraria/livro.xhtml HTTP/1.1" 200 10358
127.0.0.1 - - [25/Sep/2017:15:51:22 -0300] "GET / HTTP/1.1" 404 1081
0:0:0:0:0:0:0:1 - - [25/Sep/2017:15:51:48 -0300] "GET /jsf-livraria/livro.xhtml HTTP/1.1" 200 10105
0:0:0:0:0:0:0:1 - - [25/Sep/2017:15:51:50 -0300] "POST /jsf-livraria/livro.xhtml HTTP/1.1" 302 -
0:0:0:0:0:0:0:1 - - [25/Sep/2017:15:51:50 -0300] "GET /jsf-livraria/autor.xhtml HTTP/1.1" 200 3474
0:0:0:0:0:0:0:1 - - [25/Sep/2017:15:51:56 -0300] "POST /jsf-livraria/autor.xhtml HTTP/1.1" 500 14298
0:0:0:0:0:0:0:1 - - [25/Sep/2017:15:52:19 -0300] "POST /jsf-livraria/autor.xhtml HTTP/1.1" 302 -
0:0:0:0:0:0:0:1 - - [25/Sep/2017:15:52:19 -0300] "GET /jsf-livraria/livro.xhtml HTTP/1.1" 200 10139
0:0:0:0:0:0:0:1 - - [25/Sep/2017:15:52:22 -0300] "POST /jsf-livraria/livro.xhtml HTTP/1.1" 302 -
0:0:0:0:0:0:0:1 - - [25/Sep/2017:15:52:22 -0300] "GET /jsf-livraria/autor.xhtml HTTP/1.1" 200 3918
0:0:0:0:0:0:0:1 - - [25/Sep/2017:15:52:24 -0300] "POST /jsf-livraria/autor.xhtml HTTP/1.1" 200 3472
0:0:0:0:0:0:0:1 - - [25/Sep/2017:15:52:28 -0300] "POST /jsf-livraria/autor.xhtml HTTP/1.1" 200 3470
0:0:0:0:0:0:0:1 - - [25/Sep/2017:15:52:31 -0300] "POST /jsf-livraria/autor.xhtml HTTP/1.1" 200 3472
127.0.0.1 - - [25/Sep/2017:15:53:46 -0300] "GET / HTTP/1.1" 404 1081
0:0:0:0:0:0:0:1 - - [25/Sep/2017:15:54:04 -0300] "GET /jsf-livraria/autor.xhtml HTTP/1.1" 200 3472
0:0:0:0:0:0:0:1 - - [25/Sep/2017:15:54:07 -0300] "POST /jsf-livraria/autor.xhtml HTTP/1.1" 200 3499
127.0.0.1 - - [25/Sep/2017:15:55:16 -0300] "GET / HTTP/1.1" 404 1081
0:0:0:0:0:0:0:1 - - [25/Sep/2017:15:55:30 -0300] "GET /jsf-livraria/autor.xhtml HTTP/1.1" 200 3468
0:0:0:0:0:0:0:1 - - [25/Sep/2017:15:55:33 -0300] "POST /jsf-livraria/autor.xhtml HTTP/1.1" 200 3495
0:0:0:0:0:0:0:1 - - [25/Sep/2017:15:55:37 -0300] "POST /jsf-livraria/autor.xhtml HTTP/1.1" 302 -
0:0:0:0:0:0:0:1 - - [25/Sep/2017:15:55:38 -0300] "GET /jsf-livraria/livro.xhtml HTTP/1.1" 200 10142
0:0:0:0:0:0:0:1 - - [25/Sep/2017:15:55:40 -0300] "POST /jsf-livraria/livro.xhtml HTTP/1.1" 302 -
0:0:0:0:0:0:0:1 - - [25/Sep/2017:15:55:40 -0300] "GET /jsf-livraria/autor.xhtml HTTP/1.1" 200 3923
0:0:0:0:0:0:0:1 - - [25/Sep/2017:15:56:14 -0300] "POST /jsf-livraria/autor.xhtml HTTP/1.1" 200 3472
0:0:0:0:0:0:0:1 - - [25/Sep/2017:15:56:17 -0300] "POST /jsf-livraria/autor.xhtml HTTP/1.1" 200 3497
0:0:0:0:0:0:0:1 - - [25/Sep/2017:15:56:23 -0300] "POST /jsf-livraria/autor.xhtml HTTP/1.1" 302 -
0:0:0:0:0:0:0:1 - - [25/Sep/2017:15:56:23 -0300] "POST /jsf-livraria/autor.xhtml HTTP/1.1" 302 -
0:0:0:0:0:0:0:1 - - [25/Sep/2017:15:56:23 -0300] "GET /jsf-livraria/livro.xhtml HTTP/1.1" 200 10181
0:0:0:0:0:0:0:1 - - [25/Sep/2017:15:56:25 -0300] "POST /jsf-livraria/livro.xhtml HTTP/1.1" 302 -
0:0:0:0:0:0:0:1 - - [25/Sep/2017:15:56:25 -0300] "GET /jsf-livraria/autor.xhtml HTTP/1.1" 200 4374
0:0:0:0:0:0:0:1 - - [25/Sep/2017:15:56:48 -0300] "POST /jsf-livraria/autor.xhtml HTTP/1.1" 200 4393
0:0:0:0:0:0:0:1 - - [25/Sep/2017:15:56:51 -0300] "POST /jsf-livraria/autor.xhtml HTTP/1.1" 200 4391
0:0:0:0:0:0:0:1 - - [25/Sep/2017:15:56:52 -0300] "POST /jsf-livraria/autor.xhtml HTTP/1.1" 200 4391
0:0:0:0:0:0:0:1 - - [25/Sep/2017:15:56:53 -0300] "POST /jsf-livraria/autor.xhtml HTTP/1.1" 200 4391
0:0:0:0:0:0:0:1 - - [25/Sep/2017:15:56:55 -0300] "POST /jsf-livraria/autor.xhtml HTTP/1.1" 200 3921
0:0:0:0:0:0:0:1 - - [25/Sep/2017:15:56:57 -0300] "POST /jsf-livraria/autor.xhtml HTTP/1.1" 200 3474
0:0:0:0:0:0:0:1 - - [25/Sep/2017:15:56:57 -0300] "POST /jsf-livraria/autor.xhtml HTTP/1.1" 200 3472
0:0:0:0:0:0:0:1 - - [25/Sep/2017:15:56:59 -0300] "GET /jsf-livraria/autor.xhtml HTTP/1.1" 200 3474
0:0:0:0:0:0:0:1 - - [25/Sep/2017:15:57:02 -0300] "GET /jsf-livraria/autor.xhtml HTTP/1.1" 200 3466
0:0:0:0:0:0:0:1 - - [25/Sep/2017:15:57:05 -0300] "POST /jsf-livraria/autor.xhtml HTTP/1.1" 200 3493
127.0.0.1 - - [25/Sep/2017:15:57:18 -0300] "GET / HTTP/1.1" 404 1081
0:0:0:0:0:0:0:1 - - [25/Sep/2017:15:57:34 -0300] "GET /jsf-livraria/autor.xhtml HTTP/1.1" 200 3472
0:0:0:0:0:0:0:1 - - [25/Sep/2017:15:57:36 -0300] "POST /jsf-livraria/autor.xhtml HTTP/1.1" 200 3497
0:0:0:0:0:0:0:1 - - [25/Sep/2017:15:57:39 -0300] "POST /jsf-livraria/autor.xhtml HTTP/1.1" 302 -
0:0:0:0:0:0:0:1 - - [25/Sep/2017:15:57:40 -0300] "GET /jsf-livraria/livro.xhtml HTTP/1.1" 200 10144
0:0:0:0:0:0:0:1 - - [25/Sep/2017:15:57:42 -0300] "POST /jsf-livraria/livro.xhtml HTTP/1.1" 302 -
0:0:0:0:0:0:0:1 - - [25/Sep/2017:15:57:42 -0300] "GET /jsf-livraria/autor.xhtml HTTP/1.1" 200 3923
127.0.0.1 - - [25/Sep/2017:15:58:08 -0300] "GET / HTTP/1.1" 404 1081
0:0:0:0:0:0:0:1 - - [25/Sep/2017:15:58:21 -0300] "GET /jsf-livraria/autor.xhtml HTTP/1.1" 200 3923
0:0:0:0:0:0:0:1 - - [25/Sep/2017:15:58:25 -0300] "POST /jsf-livraria/autor.xhtml HTTP/1.1" 200 3472
0:0:0:0:0:0:0:1 - - [25/Sep/2017:15:58:27 -0300] "POST /jsf-livraria/autor.xhtml HTTP/1.1" 200 3495
0:0:0:0:0:0:0:1 - - [25/Sep/2017:16:00:24 -0300] "POST /jsf-livraria/autor.xhtml HTTP/1.1" 302 -
0:0:0:0:0:0:0:1 - - [25/Sep/2017:16:00:34 -0300] "GET /jsf-livraria/livro.xhtml HTTP/1.1" 200 10145
0:0:0:0:0:0:0:1 - - [25/Sep/2017:16:00:36 -0300] "POST /jsf-livraria/livro.xhtml HTTP/1.1" 302 -
0:0:0:0:0:0:0:1 - - [25/Sep/2017:16:02:08 -0300] "GET /jsf-livraria/autor.xhtml HTTP/1.1" 200 3921
0:0:0:0:0:0:0:1 - - [25/Sep/2017:16:02:49 -0300] "POST /jsf-livraria/autor.xhtml HTTP/1.1" 200 3936
0:0:0:0:0:0:0:1 - - [25/Sep/2017:16:03:26 -0300] "POST /jsf-livraria/autor.xhtml HTTP/1.1" 200 3948
0:0:0:0:0:0:0:1 - - [25/Sep/2017:16:03:31 -0300] "POST /jsf-livraria/autor.xhtml HTTP/1.1" 200 3938
127.0.0.1 - - [25/Sep/2017:16:04:17 -0300] "GET / HTTP/1.1" 404 1081
0:0:0:0:0:0:0:1 - - [25/Sep/2017:16:04:22 -0300] "GET /jsf-livraria/autor.xhtml HTTP/1.1" 200 3925
0:0:0:0:0:0:0:1 - - [25/Sep/2017:16:04:27 -0300] "POST /jsf-livraria/autor.xhtml HTTP/1.1" 200 3948
0:0:0:0:0:0:0:1 - - [25/Sep/2017:16:04:35 -0300] "POST /jsf-livraria/autor.xhtml HTTP/1.1" 200 3497
0:0:0:0:0:0:0:1 - - [25/Sep/2017:16:04:37 -0300] "POST /jsf-livraria/autor.xhtml HTTP/1.1" 200 3499
0:0:0:0:0:0:0:1 - - [25/Sep/2017:16:04:42 -0300] "POST /jsf-livraria/autor.xhtml HTTP/1.1" 302 -
0:0:0:0:0:0:0:1 - - [25/Sep/2017:16:04:43 -0300] "GET /jsf-livraria/livro.xhtml HTTP/1.1" 200 10099
0:0:0:0:0:0:0:1 - - [25/Sep/2017:16:04:45 -0300] "POST /jsf-livraria/livro.xhtml HTTP/1.1" 302 -
0:0:0:0:0:0:0:1 - - [25/Sep/2017:16:04:45 -0300] "GET /jsf-livraria/autor.xhtml HTTP/1.1" 200 3466
0:0:0:0:0:0:0:1 - - [25/Sep/2017:16:04:56 -0300] "POST /jsf-livraria/autor.xhtml HTTP/1.1" 302 -
0:0:0:0:0:0:0:1 - - [25/Sep/2017:16:04:56 -0300] "GET /jsf-livraria/livro.xhtml HTTP/1.1" 200 10144
0:0:0:0:0:0:0:1 - - [25/Sep/2017:16:04:57 -0300] "POST /jsf-livraria/livro.xhtml HTTP/1.1" 302 -
0:0:0:0:0:0:0:1 - - [25/Sep/2017:16:04:57 -0300] "GET /jsf-livraria/autor.xhtml HTTP/1.1" 200 3922
0:0:0:0:0:0:0:1 - - [25/Sep/2017:16:04:59 -0300] "POST /jsf-livraria/autor.xhtml HTTP/1.1" 200 3942
0:0:0:0:0:0:0:1 - - [25/Sep/2017:16:05:03 -0300] "POST /jsf-livraria/autor.xhtml HTTP/1.1" 302 -
0:0:0:0:0:0:0:1 - - [25/Sep/2017:16:05:03 -0300] "GET /jsf-livraria/livro.xhtml HTTP/1.1" 200 10143
0:0:0:0:0:0:0:1 - - [25/Sep/2017:16:05:05 -0300] "POST /jsf-livraria/livro.xhtml HTTP/1.1" 302 -
0:0:0:0:0:0:0:1 - - [25/Sep/2017:16:05:05 -0300] "GET /jsf-livraria/autor.xhtml HTTP/1.1" 200 3917
0:0:0:0:0:0:0:1 - - [25/Sep/2017:16:05:08 -0300] "POST /jsf-livraria/autor.xhtml HTTP/1.1" 200 3460
0:0:0:0:0:0:0:1 - - [25/Sep/2017:16:05:09 -0300] "POST /jsf-livraria/autor.xhtml HTTP/1.1" 200 3479
0:0:0:0:0:0:0:1 - - [25/Sep/2017:16:05:12 -0300] "POST /jsf-livraria/autor.xhtml HTTP/1.1" 302 -
0:0:0:0:0:0:0:1 - - [25/Sep/2017:16:05:13 -0300] "GET /jsf-livraria/livro.xhtml HTTP/1.1" 200 10107
0:0:0:0:0:0:0:1 - - [25/Sep/2017:16:05:14 -0300] "POST /jsf-livraria/livro.xhtml HTTP/1.1" 302 -
0:0:0:0:0:0:0:1 - - [25/Sep/2017:16:05:14 -0300] "GET /jsf-livraria/autor.xhtml HTTP/1.1" 200 3470
127.0.0.1 - - [25/Sep/2017:21:09:41 -0300] "GET / HTTP/1.1" 404 1081
0:0:0:0:0:0:0:1 - - [25/Sep/2017:21:09:52 -0300] "GET /jsf-livraria/autor.xhtml HTTP/1.1" 404 1105
0:0:0:0:0:0:0:1 - - [25/Sep/2017:21:09:55 -0300] "GET /jsf-livraria/autor.xhtml HTTP/1.1" 404 1105
127.0.0.1 - - [25/Sep/2017:21:10:20 -0300] "GET / HTTP/1.1" 404 1081
127.0.0.1 - - [25/Sep/2017:21:11:52 -0300] "GET / HTTP/1.1" 404 1081
0:0:0:0:0:0:0:1 - - [25/Sep/2017:21:12:02 -0300] "GET /jsf-livraria/autor.xhtml HTTP/1.1" 500 4372
0:0:0:0:0:0:0:1 - - [25/Sep/2017:21:12:44 -0300] "GET /jsf-livraria/autor.xhtml?autorId=2 HTTP/1.1" 200 3496
0:0:0:0:0:0:0:1 - - [25/Sep/2017:21:13:06 -0300] "GET /jsf-livraria/autor.xhtml?autorId=3 HTTP/1.1" 200 3499
0:0:0:0:0:0:0:1 - - [25/Sep/2017:21:14:43 -0300] "GET /jsf-livraria/autor.xhtml?autorId=3 HTTP/1.1" 200 3501
0:0:0:0:0:0:0:1 - - [25/Sep/2017:21:14:46 -0300] "GET /jsf-livraria/autor.xhtml HTTP/1.1" 200 3480
127.0.0.1 - - [25/Sep/2017:21:23:23 -0300] "GET / HTTP/1.1" 404 1081
0:0:0:0:0:0:0:1 - - [25/Sep/2017:21:23:57 -0300] "GET /jsf-livraria/autor.xhtml HTTP/1.1" 200 3810
0:0:0:0:0:0:0:1 - - [25/Sep/2017:21:28:08 -0300] "GET /jsf-livraria/autor.xhtml HTTP/1.1" 200 3827
0:0:0:0:0:0:0:1 - - [25/Sep/2017:21:28:15 -0300] "GET /jsf-livraria/autor.xhtml HTTP/1.1" 200 3878
0:0:0:0:0:0:0:1 - - [25/Sep/2017:21:28:34 -0300] "GET /jsf-livraria/autor.xhtml HTTP/1.1" 200 3812
0:0:0:0:0:0:0:1 - - [25/Sep/2017:21:28:53 -0300] "GET /jsf-livraria/autor.xhtml HTTP/1.1" 200 3846
0:0:0:0:0:0:0:1 - - [25/Sep/2017:21:29:34 -0300] "GET /jsf-livraria/autor.xhtml HTTP/1.1" 200 3872
0:0:0:0:0:0:0:1 - - [25/Sep/2017:21:30:07 -0300] "GET /jsf-livraria/autor.xhtml HTTP/1.1" 200 3851
0:0:0:0:0:0:0:1 - - [25/Sep/2017:21:30:19 -0300] "GET /jsf-livraria/autor.xhtml HTTP/1.1" 200 3814
0:0:0:0:0:0:0:1 - - [25/Sep/2017:21:32:49 -0300] "GET /jsf-livraria/autor.xhtml HTTP/1.1" 200 3784
0:0:0:0:0:0:0:1 - - [25/Sep/2017:21:32:52 -0300] "GET /jsf-livraria/autor.xhtml HTTP/1.1" 200 3780
0:0:0:0:0:0:0:1 - - [25/Sep/2017:21:32:59 -0300] "GET /jsf-livraria/autor.xhtml HTTP/1.1" 200 3780
127.0.0.1 - - [25/Sep/2017:21:34:01 -0300] "GET / HTTP/1.1" 404 1081
0:0:0:0:0:0:0:1 - - [25/Sep/2017:21:34:40 -0300] "GET /jsf-livraria/autor.xhtml HTTP/1.1" 200 3784
0:0:0:0:0:0:0:1 - - [25/Sep/2017:21:35:08 -0300] "GET /jsf-livraria/autor.xhtml HTTP/1.1" 200 3588
0:0:0:0:0:0:0:1 - - [25/Sep/2017:21:35:20 -0300] "GET /jsf-livraria/autor.xhtml HTTP/1.1" 200 3722
fe80:0:0:0:f59b:942b:84b5:f216%6 - - [25/Sep/2017:21:38:52 -0300] "GET / HTTP/1.1" 404 1081
192.168.1.104 - - [25/Sep/2017:21:38:52 -0300] "GET / HTTP/1.1" 404 1081
0:0:0:0:0:0:0:1 - - [25/Sep/2017:21:39:14 -0300] "GET /jsf-livraria/autor.xhtml HTTP/1.1" 200 3782
127.0.0.1 - - [25/Sep/2017:21:39:32 -0300] "GET / HTTP/1.1" 404 1081
0:0:0:0:0:0:0:1 - - [25/Sep/2017:21:41:01 -0300] "GET /jsf-livraria/autor.xhtml HTTP/1.1" 200 3782
0:0:0:0:0:0:0:1 - - [25/Sep/2017:21:41:21 -0300] "GET /jsf-livraria/autor.xhtml HTTP/1.1" 200 3771
0:0:0:0:0:0:0:1 - - [25/Sep/2017:21:41:30 -0300] "POST /jsf-livraria/autor.xhtml HTTP/1.1" 200 372
127.0.0.1 - - [25/Sep/2017:21:48:30 -0300] "GET / HTTP/1.1" 404 1081
0:0:0:0:0:0:0:1 - - [25/Sep/2017:21:48:50 -0300] "GET /jsf-livraria/livro.xhtml HTTP/1.1" 200 10105
0:0:0:0:0:0:0:1 - - [25/Sep/2017:21:48:58 -0300] "GET /jsf-livraria/livro.xhtml?livroId=1 HTTP/1.1" 200 10791
127.0.0.1 - - [25/Sep/2017:22:06:18 -0300] "GET / HTTP/1.1" 404 1081
0:0:0:0:0:0:0:1 - - [25/Sep/2017:22:07:05 -0300] "GET /jsf-livraria/login.xhtml HTTP/1.1" 500 6700
127.0.0.1 - - [25/Sep/2017:22:08:47 -0300] "GET / HTTP/1.1" 404 1081
0:0:0:0:0:0:0:1 - - [25/Sep/2017:22:09:06 -0300] "GET /jsf-livraria/login.xhtml HTTP/1.1" 200 1172
0:0:0:0:0:0:0:1 - - [25/Sep/2017:22:09:10 -0300] "POST /jsf-livraria/login.xhtml HTTP/1.1" 302 -
0:0:0:0:0:0:0:1 - - [25/Sep/2017:22:09:17 -0300] "GET /jsf-livraria/livro.xhtml HTTP/1.1" 200 10105
127.0.0.1 - - [25/Sep/2017:22:22:27 -0300] "GET / HTTP/1.1" 404 1081
0:0:0:0:0:0:0:1 - - [25/Sep/2017:22:22:28 -0300] "GET /jsf-livraria/login.xhtml HTTP/1.1" 200 1173
0:0:0:0:0:0:0:1 - - [25/Sep/2017:22:22:40 -0300] "POST /jsf-livraria/login.xhtml HTTP/1.1" 500 6503
127.0.0.1 - - [25/Sep/2017:22:25:54 -0300] "GET / HTTP/1.1" 404 1081
0:0:0:0:0:0:0:1 - - [25/Sep/2017:22:26:09 -0300] "POST /jsf-livraria/login.xhtml HTTP/1.1" 302 -
0:0:0:0:0:0:0:1 - - [25/Sep/2017:22:26:09 -0300] "GET /jsf-livraria/livro.xhtml HTTP/1.1" 200 10105
0:0:0:0:0:0:0:1 - - [25/Sep/2017:22:26:11 -0300] "GET /jsf-livraria/login.xhtml HTTP/1.1" 200 1172
0:0:0:0:0:0:0:1 - - [25/Sep/2017:22:26:14 -0300] "POST /jsf-livraria/login.xhtml HTTP/1.1" 500 3934
127.0.0.1 - - [25/Sep/2017:22:29:03 -0300] "GET / HTTP/1.1" 404 1081
0:0:0:0:0:0:0:1 - - [25/Sep/2017:22:29:21 -0300] "POST /jsf-livraria/login.xhtml HTTP/1.1" 200 1212
0:0:0:0:0:0:0:1 - - [25/Sep/2017:22:29:24 -0300] "POST /jsf-livraria/login.xhtml HTTP/1.1" 302 -
0:0:0:0:0:0:0:1 - - [25/Sep/2017:22:29:24 -0300] "GET /jsf-livraria/livro.xhtml HTTP/1.1" 200 10107
127.0.0.1 - - [25/Sep/2017:22:32:12 -0300] "GET / HTTP/1.1" 404 1081
0:0:0:0:0:0:0:1 - - [25/Sep/2017:22:32:27 -0300] "POST /jsf-livraria/login.xhtml HTTP/1.1" 500 3825
127.0.0.1 - - [25/Sep/2017:22:33:34 -0300] "GET / HTTP/1.1" 404 1081
0:0:0:0:0:0:0:1 - - [25/Sep/2017:22:33:41 -0300] "GET /jsf-livraria/login.xhtml HTTP/1.1" 200 1209
0:0:0:0:0:0:0:1 - - [25/Sep/2017:22:33:44 -0300] "POST /jsf-livraria/login.xhtml HTTP/1.1" 500 3823
127.0.0.1 - - [25/Sep/2017:22:37:04 -0300] "GET / HTTP/1.1" 404 1081
0:0:0:0:0:0:0:1 - - [25/Sep/2017:22:37:10 -0300] "GET /jsf-livraria/login.xhtml HTTP/1.1" 200 1209
0:0:0:0:0:0:0:1 - - [25/Sep/2017:22:37:16 -0300] "POST /jsf-livraria/login.xhtml HTTP/1.1" 500 2225
127.0.0.1 - - [25/Sep/2017:22:37:58 -0300] "GET / HTTP/1.1" 404 1081
0:0:0:0:0:0:0:1 - - [25/Sep/2017:22:38:03 -0300] "GET /jsf-livraria/login.xhtml HTTP/1.1" 200 1208
0:0:0:0:0:0:0:1 - - [25/Sep/2017:22:38:45 -0300] "POST /jsf-livraria/login.xhtml HTTP/1.1" 200 1283
127.0.0.1 - - [25/Sep/2017:22:39:31 -0300] "GET / HTTP/1.1" 404 1081
0:0:0:0:0:0:0:1 - - [25/Sep/2017:22:39:36 -0300] "GET /jsf-livraria/login.xhtml HTTP/1.1" 200 1207
0:0:0:0:0:0:0:1 - - [25/Sep/2017:22:39:45 -0300] "POST /jsf-livraria/login.xhtml HTTP/1.1" 302 -
0:0:0:0:0:0:0:1 - - [25/Sep/2017:22:39:46 -0300] "GET /jsf-livraria/livro.xhtml HTTP/1.1" 200 10105
0:0:0:0:0:0:0:1 - - [25/Sep/2017:22:39:53 -0300] "POST /jsf-livraria/livro.xhtml HTTP/1.1" 302 -
0:0:0:0:0:0:0:1 - - [25/Sep/2017:22:39:54 -0300] "GET /jsf-livraria/autor.xhtml HTTP/1.1" 200 3769
0:0:0:0:0:0:0:1 - - [25/Sep/2017:22:39:59 -0300] "POST /jsf-livraria/autor.xhtml HTTP/1.1" 200 313
0:0:0:0:0:0:0:1 - - [25/Sep/2017:22:40:13 -0300] "POST /jsf-livraria/autor.xhtml HTTP/1.1" 302 -
0:0:0:0:0:0:0:1 - - [25/Sep/2017:22:40:13 -0300] "GET /jsf-livraria/livro.xhtml HTTP/1.1" 200 10151
0:0:0:0:0:0:0:1 - - [25/Sep/2017:22:40:15 -0300] "POST /jsf-livraria/livro.xhtml HTTP/1.1" 302 -
0:0:0:0:0:0:0:1 - - [25/Sep/2017:22:40:15 -0300] "GET /jsf-livraria/autor.xhtml HTTP/1.1" 200 4230
0:0:0:0:0:0:0:1 - - [25/Sep/2017:22:40:18 -0300] "POST /jsf-livraria/autor.xhtml HTTP/1.1" 200 4291
0:0:0:0:0:0:0:1 - - [25/Sep/2017:22:40:23 -0300] "POST /jsf-livraria/autor.xhtml HTTP/1.1" 200 315
0:0:0:0:0:0:0:1 - - [25/Sep/2017:22:40:24 -0300] "POST /jsf-livraria/autor.xhtml HTTP/1.1" 302 -
0:0:0:0:0:0:0:1 - - [25/Sep/2017:22:40:24 -0300] "GET /jsf-livraria/livro.xhtml HTTP/1.1" 200 10163
0:0:0:0:0:0:0:1 - - [25/Sep/2017:22:40:26 -0300] "POST /jsf-livraria/livro.xhtml HTTP/1.1" 302 -
0:0:0:0:0:0:0:1 - - [25/Sep/2017:22:40:26 -0300] "GET /jsf-livraria/autor.xhtml HTTP/1.1" 200 4240
0:0:0:0:0:0:0:1 - - [25/Sep/2017:22:40:32 -0300] "POST /jsf-livraria/autor.xhtml HTTP/1.1" 200 4307
0:0:0:0:0:0:0:1 - - [25/Sep/2017:22:40:33 -0300] "POST /jsf-livraria/autor.xhtml HTTP/1.1" 302 -
0:0:0:0:0:0:0:1 - - [25/Sep/2017:22:40:33 -0300] "GET /jsf-livraria/livro.xhtml HTTP/1.1" 200 10163
0:0:0:0:0:0:0:1 - - [25/Sep/2017:22:40:43 -0300] "POST /jsf-livraria/livro.xhtml HTTP/1.1" 200 384
0:0:0:0:0:0:0:1 - - [25/Sep/2017:22:40:44 -0300] "POST /jsf-livraria/livro.xhtml HTTP/1.1" 200 9662
0:0:0:0:0:0:0:1 - - [25/Sep/2017:22:40:44 -0300] "POST /jsf-livraria/livro.xhtml HTTP/1.1" 200 9129
0:0:0:0:0:0:0:1 - - [25/Sep/2017:22:40:47 -0300] "POST /jsf-livraria/livro.xhtml HTTP/1.1" 200 8615
0:0:0:0:0:0:0:1 - - [25/Sep/2017:22:40:48 -0300] "POST /jsf-livraria/livro.xhtml HTTP/1.1" 200 8094
0:0:0:0:0:0:0:1 - - [25/Sep/2017:22:40:49 -0300] "POST /jsf-livraria/livro.xhtml HTTP/1.1" 200 7584
0:0:0:0:0:0:0:1 - - [25/Sep/2017:22:40:50 -0300] "POST /jsf-livraria/livro.xhtml HTTP/1.1" 200 7068
0:0:0:0:0:0:0:1 - - [25/Sep/2017:22:40:50 -0300] "POST /jsf-livraria/livro.xhtml HTTP/1.1" 200 6580
0:0:0:0:0:0:0:1 - - [25/Sep/2017:22:40:51 -0300] "POST /jsf-livraria/livro.xhtml HTTP/1.1" 200 6085
0:0:0:0:0:0:0:1 - - [25/Sep/2017:22:40:52 -0300] "POST /jsf-livraria/livro.xhtml HTTP/1.1" 200 5579
0:0:0:0:0:0:0:1 - - [25/Sep/2017:22:40:56 -0300] "POST /jsf-livraria/livro.xhtml HTTP/1.1" 200 385
0:0:0:0:0:0:0:1 - - [25/Sep/2017:22:41:01 -0300] "POST /jsf-livraria/livro.xhtml HTTP/1.1" 200 385
0:0:0:0:0:0:0:1 - - [25/Sep/2017:22:43:18 -0300] "GET /jsf-livraria/login.xhtml HTTP/1.1" 200 1207
0:0:0:0:0:0:0:1 - - [25/Sep/2017:22:43:21 -0300] "POST /jsf-livraria/login.xhtml HTTP/1.1" 200 1284
127.0.0.1 - - [25/Sep/2017:22:54:22 -0300] "GET / HTTP/1.1" 404 1081
0:0:0:0:0:0:0:1 - - [25/Sep/2017:22:54:28 -0300] "GET /jsf-livraria/login.xhtml HTTP/1.1" 200 1207
127.0.0.1 - - [25/Sep/2017:23:11:03 -0300] "GET / HTTP/1.1" 404 1081
0:0:0:0:0:0:0:1 - - [25/Sep/2017:23:11:12 -0300] "GET /jsf-livraria/login.xhtml HTTP/1.1" 302 -
0:0:0:0:0:0:0:1 - - [25/Sep/2017:23:11:12 -0300] "GET /jsf-livraria/login.xhtml HTTP/1.1" 302 -
0:0:0:0:0:0:0:1 - - [25/Sep/2017:23:11:12 -0300] "GET /jsf-livraria/login.xhtml HTTP/1.1" 302 -
0:0:0:0:0:0:0:1 - - [25/Sep/2017:23:11:12 -0300] "GET /jsf-livraria/login.xhtml HTTP/1.1" 302 -
0:0:0:0:0:0:0:1 - - [25/Sep/2017:23:11:12 -0300] "GET /jsf-livraria/login.xhtml HTTP/1.1" 302 -
0:0:0:0:0:0:0:1 - - [25/Sep/2017:23:11:12 -0300] "GET /jsf-livraria/login.xhtml HTTP/1.1" 302 -
0:0:0:0:0:0:0:1 - - [25/Sep/2017:23:11:12 -0300] "GET /jsf-livraria/login.xhtml HTTP/1.1" 302 -
0:0:0:0:0:0:0:1 - - [25/Sep/2017:23:11:12 -0300] "GET /jsf-livraria/login.xhtml HTTP/1.1" 302 -
0:0:0:0:0:0:0:1 - - [25/Sep/2017:23:11:12 -0300] "GET /jsf-livraria/login.xhtml HTTP/1.1" 302 -
0:0:0:0:0:0:0:1 - - [25/Sep/2017:23:11:12 -0300] "GET /jsf-livraria/login.xhtml HTTP/1.1" 302 -
0:0:0:0:0:0:0:1 - - [25/Sep/2017:23:11:12 -0300] "GET /jsf-livraria/login.xhtml HTTP/1.1" 302 -
0:0:0:0:0:0:0:1 - - [25/Sep/2017:23:11:12 -0300] "GET /jsf-livraria/login.xhtml HTTP/1.1" 302 -
0:0:0:0:0:0:0:1 - - [25/Sep/2017:23:11:12 -0300] "GET /jsf-livraria/login.xhtml HTTP/1.1" 302 -
0:0:0:0:0:0:0:1 - - [25/Sep/2017:23:11:12 -0300] "GET /jsf-livraria/login.xhtml HTTP/1.1" 302 -
0:0:0:0:0:0:0:1 - - [25/Sep/2017:23:11:12 -0300] "GET /jsf-livraria/login.xhtml HTTP/1.1" 302 -
0:0:0:0:0:0:0:1 - - [25/Sep/2017:23:11:12 -0300] "GET /jsf-livraria/login.xhtml HTTP/1.1" 302 -
0:0:0:0:0:0:0:1 - - [25/Sep/2017:23:11:12 -0300] "GET /jsf-livraria/login.xhtml HTTP/1.1" 302 -
0:0:0:0:0:0:0:1 - - [25/Sep/2017:23:11:12 -0300] "GET /jsf-livraria/login.xhtml HTTP/1.1" 302 -
0:0:0:0:0:0:0:1 - - [25/Sep/2017:23:11:12 -0300] "GET /jsf-livraria/login.xhtml HTTP/1.1" 302 -
0:0:0:0:0:0:0:1 - - [25/Sep/2017:23:11:12 -0300] "GET /jsf-livraria/login.xhtml HTTP/1.1" 302 -
0:0:0:0:0:0:0:1 - - [25/Sep/2017:23:11:12 -0300] "GET /jsf-livraria/login.xhtml HTTP/1.1" 302 -
0:0:0:0:0:0:0:1 - - [25/Sep/2017:23:11:12 -0300] "GET /jsf-livraria/login.xhtml HTTP/1.1" 302 -
0:0:0:0:0:0:0:1 - - [25/Sep/2017:23:11:12 -0300] "GET /jsf-livraria/login.xhtml HTTP/1.1" 302 -
0:0:0:0:0:0:0:1 - - [25/Sep/2017:23:11:12 -0300] "GET /jsf-livraria/login.xhtml HTTP/1.1" 302 -
0:0:0:0:0:0:0:1 - - [25/Sep/2017:23:11:12 -0300] "GET /jsf-livraria/login.xhtml HTTP/1.1" 302 -
0:0:0:0:0:0:0:1 - - [25/Sep/2017:23:11:12 -0300] "GET /jsf-livraria/login.xhtml HTTP/1.1" 302 -
0:0:0:0:0:0:0:1 - - [25/Sep/2017:23:11:12 -0300] "GET /jsf-livraria/login.xhtml HTTP/1.1" 302 -
0:0:0:0:0:0:0:1 - - [25/Sep/2017:23:11:12 -0300] "GET /jsf-livraria/login.xhtml HTTP/1.1" 302 -
0:0:0:0:0:0:0:1 - - [25/Sep/2017:23:11:12 -0300] "GET /jsf-livraria/login.xhtml HTTP/1.1" 302 -
0:0:0:0:0:0:0:1 - - [25/Sep/2017:23:11:12 -0300] "GET /jsf-livraria/login.xhtml HTTP/1.1" 302 -
0:0:0:0:0:0:0:1 - - [25/Sep/2017:23:11:12 -0300] "GET /jsf-livraria/login.xhtml HTTP/1.1" 302 -
0:0:0:0:0:0:0:1 - - [25/Sep/2017:23:11:12 -0300] "GET /jsf-livraria/login.xhtml HTTP/1.1" 302 -
0:0:0:0:0:0:0:1 - - [25/Sep/2017:23:11:12 -0300] "GET /jsf-livraria/login.xhtml HTTP/1.1" 302 -
0:0:0:0:0:0:0:1 - - [25/Sep/2017:23:11:12 -0300] "GET /jsf-livraria/login.xhtml HTTP/1.1" 302 -
0:0:0:0:0:0:0:1 - - [25/Sep/2017:23:11:12 -0300] "GET /jsf-livraria/login.xhtml HTTP/1.1" 302 -
0:0:0:0:0:0:0:1 - - [25/Sep/2017:23:11:12 -0300] "GET /jsf-livraria/login.xhtml HTTP/1.1" 302 -
0:0:0:0:0:0:0:1 - - [25/Sep/2017:23:11:12 -0300] "GET /jsf-livraria/login.xhtml HTTP/1.1" 302 -
0:0:0:0:0:0:0:1 - - [25/Sep/2017:23:11:12 -0300] "GET /jsf-livraria/login.xhtml HTTP/1.1" 302 -
0:0:0:0:0:0:0:1 - - [25/Sep/2017:23:11:12 -0300] "GET /jsf-livraria/login.xhtml HTTP/1.1" 302 -
0:0:0:0:0:0:0:1 - - [25/Sep/2017:23:11:12 -0300] "GET /jsf-livraria/login.xhtml HTTP/1.1" 302 -
0:0:0:0:0:0:0:1 - - [25/Sep/2017:23:11:12 -0300] "GET /jsf-livraria/login.xhtml HTTP/1.1" 302 -
0:0:0:0:0:0:0:1 - - [25/Sep/2017:23:11:12 -0300] "GET /jsf-livraria/login.xhtml HTTP/1.1" 302 -
0:0:0:0:0:0:0:1 - - [25/Sep/2017:23:11:14 -0300] "GET /jsf-livraria/login.xhtml HTTP/1.1" 302 -
0:0:0:0:0:0:0:1 - - [25/Sep/2017:23:11:14 -0300] "GET /jsf-livraria/login.xhtml HTTP/1.1" 302 -
0:0:0:0:0:0:0:1 - - [25/Sep/2017:23:11:14 -0300] "GET /jsf-livraria/login.xhtml HTTP/1.1" 302 -
0:0:0:0:0:0:0:1 - - [25/Sep/2017:23:11:14 -0300] "GET /jsf-livraria/login.xhtml HTTP/1.1" 302 -
0:0:0:0:0:0:0:1 - - [25/Sep/2017:23:11:14 -0300] "GET /jsf-livraria/login.xhtml HTTP/1.1" 302 -
0:0:0:0:0:0:0:1 - - [25/Sep/2017:23:11:14 -0300] "GET /jsf-livraria/login.xhtml HTTP/1.1" 302 -
0:0:0:0:0:0:0:1 - - [25/Sep/2017:23:11:14 -0300] "GET /jsf-livraria/login.xhtml HTTP/1.1" 302 -
0:0:0:0:0:0:0:1 - - [25/Sep/2017:23:11:14 -0300] "GET /jsf-livraria/login.xhtml HTTP/1.1" 302 -
0:0:0:0:0:0:0:1 - - [25/Sep/2017:23:11:14 -0300] "GET /jsf-livraria/login.xhtml HTTP/1.1" 302 -
0:0:0:0:0:0:0:1 - - [25/Sep/2017:23:11:14 -0300] "GET /jsf-livraria/login.xhtml HTTP/1.1" 302 -
0:0:0:0:0:0:0:1 - - [25/Sep/2017:23:11:14 -0300] "GET /jsf-livraria/login.xhtml HTTP/1.1" 302 -
0:0:0:0:0:0:0:1 - - [25/Sep/2017:23:11:14 -0300] "GET /jsf-livraria/login.xhtml HTTP/1.1" 302 -
0:0:0:0:0:0:0:1 - - [25/Sep/2017:23:11:14 -0300] "GET /jsf-livraria/login.xhtml HTTP/1.1" 302 -
0:0:0:0:0:0:0:1 - - [25/Sep/2017:23:11:14 -0300] "GET /jsf-livraria/login.xhtml HTTP/1.1" 302 -
0:0:0:0:0:0:0:1 - - [25/Sep/2017:23:11:14 -0300] "GET /jsf-livraria/login.xhtml HTTP/1.1" 302 -
0:0:0:0:0:0:0:1 - - [25/Sep/2017:23:11:14 -0300] "GET /jsf-livraria/login.xhtml HTTP/1.1" 302 -
0:0:0:0:0:0:0:1 - - [25/Sep/2017:23:11:14 -0300] "GET /jsf-livraria/login.xhtml HTTP/1.1" 302 -
0:0:0:0:0:0:0:1 - - [25/Sep/2017:23:11:14 -0300] "GET /jsf-livraria/login.xhtml HTTP/1.1" 302 -
0:0:0:0:0:0:0:1 - - [25/Sep/2017:23:11:14 -0300] "GET /jsf-livraria/login.xhtml HTTP/1.1" 302 -
0:0:0:0:0:0:0:1 - - [25/Sep/2017:23:11:14 -0300] "GET /jsf-livraria/login.xhtml HTTP/1.1" 302 -
0:0:0:0:0:0:0:1 - - [25/Sep/2017:23:11:14 -0300] "GET /jsf-livraria/login.xhtml HTTP/1.1" 302 -
0:0:0:0:0:0:0:1 - - [25/Sep/2017:23:11:19 -0300] "GET /jsf-livraria/login.xhtml HTTP/1.1" 302 -
0:0:0:0:0:0:0:1 - - [25/Sep/2017:23:11:19 -0300] "GET /jsf-livraria/login.xhtml HTTP/1.1" 302 -
0:0:0:0:0:0:0:1 - - [25/Sep/2017:23:11:19 -0300] "GET /jsf-livraria/login.xhtml HTTP/1.1" 302 -
0:0:0:0:0:0:0:1 - - [25/Sep/2017:23:11:19 -0300] "GET /jsf-livraria/login.xhtml HTTP/1.1" 302 -
0:0:0:0:0:0:0:1 - - [25/Sep/2017:23:11:19 -0300] "GET /jsf-livraria/login.xhtml HTTP/1.1" 302 -
0:0:0:0:0:0:0:1 - - [25/Sep/2017:23:11:19 -0300] "GET /jsf-livraria/login.xhtml HTTP/1.1" 302 -
0:0:0:0:0:0:0:1 - - [25/Sep/2017:23:11:19 -0300] "GET /jsf-livraria/login.xhtml HTTP/1.1" 302 -
0:0:0:0:0:0:0:1 - - [25/Sep/2017:23:11:19 -0300] "GET /jsf-livraria/login.xhtml HTTP/1.1" 302 -
0:0:0:0:0:0:0:1 - - [25/Sep/2017:23:11:19 -0300] "GET /jsf-livraria/login.xhtml HTTP/1.1" 302 -
0:0:0:0:0:0:0:1 - - [25/Sep/2017:23:11:19 -0300] "GET /jsf-livraria/login.xhtml HTTP/1.1" 302 -
0:0:0:0:0:0:0:1 - - [25/Sep/2017:23:11:19 -0300] "GET /jsf-livraria/login.xhtml HTTP/1.1" 302 -
0:0:0:0:0:0:0:1 - - [25/Sep/2017:23:11:19 -0300] "GET /jsf-livraria/login.xhtml HTTP/1.1" 302 -
0:0:0:0:0:0:0:1 - - [25/Sep/2017:23:11:19 -0300] "GET /jsf-livraria/login.xhtml HTTP/1.1" 302 -
0:0:0:0:0:0:0:1 - - [25/Sep/2017:23:11:19 -0300] "GET /jsf-livraria/login.xhtml HTTP/1.1" 302 -
0:0:0:0:0:0:0:1 - - [25/Sep/2017:23:11:19 -0300] "GET /jsf-livraria/login.xhtml HTTP/1.1" 302 -
0:0:0:0:0:0:0:1 - - [25/Sep/2017:23:11:19 -0300] "GET /jsf-livraria/login.xhtml HTTP/1.1" 302 -
0:0:0:0:0:0:0:1 - - [25/Sep/2017:23:11:19 -0300] "GET /jsf-livraria/login.xhtml HTTP/1.1" 302 -
0:0:0:0:0:0:0:1 - - [25/Sep/2017:23:11:19 -0300] "GET /jsf-livraria/login.xhtml HTTP/1.1" 302 -
0:0:0:0:0:0:0:1 - - [25/Sep/2017:23:11:19 -0300] "GET /jsf-livraria/login.xhtml HTTP/1.1" 302 -
0:0:0:0:0:0:0:1 - - [25/Sep/2017:23:11:19 -0300] "GET /jsf-livraria/login.xhtml HTTP/1.1" 302 -
0:0:0:0:0:0:0:1 - - [25/Sep/2017:23:11:19 -0300] "GET /jsf-livraria/login.xhtml HTTP/1.1" 302 -
0:0:0:0:0:0:0:1 - - [25/Sep/2017:23:11:23 -0300] "GET /jsf-livraria/login.xhtml HTTP/1.1" 302 -
0:0:0:0:0:0:0:1 - - [25/Sep/2017:23:11:23 -0300] "GET /jsf-livraria/login.xhtml HTTP/1.1" 302 -
0:0:0:0:0:0:0:1 - - [25/Sep/2017:23:11:23 -0300] "GET /jsf-livraria/login.xhtml HTTP/1.1" 302 -
0:0:0:0:0:0:0:1 - - [25/Sep/2017:23:11:23 -0300] "GET /jsf-livraria/login.xhtml HTTP/1.1" 302 -
0:0:0:0:0:0:0:1 - - [25/Sep/2017:23:11:23 -0300] "GET /jsf-livraria/login.xhtml HTTP/1.1" 302 -
0:0:0:0:0:0:0:1 - - [25/Sep/2017:23:11:23 -0300] "GET /jsf-livraria/login.xhtml HTTP/1.1" 302 -
0:0:0:0:0:0:0:1 - - [25/Sep/2017:23:11:23 -0300] "GET /jsf-livraria/login.xhtml HTTP/1.1" 302 -
0:0:0:0:0:0:0:1 - - [25/Sep/2017:23:11:23 -0300] "GET /jsf-livraria/login.xhtml HTTP/1.1" 302 -
0:0:0:0:0:0:0:1 - - [25/Sep/2017:23:11:23 -0300] "GET /jsf-livraria/login.xhtml HTTP/1.1" 302 -
0:0:0:0:0:0:0:1 - - [25/Sep/2017:23:11:23 -0300] "GET /jsf-livraria/login.xhtml HTTP/1.1" 302 -
0:0:0:0:0:0:0:1 - - [25/Sep/2017:23:11:23 -0300] "GET /jsf-livraria/login.xhtml HTTP/1.1" 302 -
0:0:0:0:0:0:0:1 - - [25/Sep/2017:23:11:23 -0300] "GET /jsf-livraria/login.xhtml HTTP/1.1" 302 -
0:0:0:0:0:0:0:1 - - [25/Sep/2017:23:11:23 -0300] "GET /jsf-livraria/login.xhtml HTTP/1.1" 302 -
0:0:0:0:0:0:0:1 - - [25/Sep/2017:23:11:23 -0300] "GET /jsf-livraria/login.xhtml HTTP/1.1" 302 -
0:0:0:0:0:0:0:1 - - [25/Sep/2017:23:11:23 -0300] "GET /jsf-livraria/login.xhtml HTTP/1.1" 302 -
0:0:0:0:0:0:0:1 - - [25/Sep/2017:23:11:23 -0300] "GET /jsf-livraria/login.xhtml HTTP/1.1" 302 -
0:0:0:0:0:0:0:1 - - [25/Sep/2017:23:11:23 -0300] "GET /jsf-livraria/login.xhtml HTTP/1.1" 302 -
0:0:0:0:0:0:0:1 - - [25/Sep/2017:23:11:23 -0300] "GET /jsf-livraria/login.xhtml HTTP/1.1" 302 -
0:0:0:0:0:0:0:1 - - [25/Sep/2017:23:11:23 -0300] "GET /jsf-livraria/login.xhtml HTTP/1.1" 302 -
0:0:0:0:0:0:0:1 - - [25/Sep/2017:23:11:23 -0300] "GET /jsf-livraria/login.xhtml HTTP/1.1" 302 -
0:0:0:0:0:0:0:1 - - [25/Sep/2017:23:11:23 -0300] "GET /jsf-livraria/login.xhtml HTTP/1.1" 302 -
0:0:0:0:0:0:0:1 - - [25/Sep/2017:23:11:25 -0300] "GET /jsf-livraria/login.xhtml HTTP/1.1" 302 -
0:0:0:0:0:0:0:1 - - [25/Sep/2017:23:11:25 -0300] "GET /jsf-livraria/login.xhtml HTTP/1.1" 302 -
0:0:0:0:0:0:0:1 - - [25/Sep/2017:23:11:25 -0300] "GET /jsf-livraria/login.xhtml HTTP/1.1" 302 -
0:0:0:0:0:0:0:1 - - [25/Sep/2017:23:11:25 -0300] "GET /jsf-livraria/login.xhtml HTTP/1.1" 302 -
0:0:0:0:0:0:0:1 - - [25/Sep/2017:23:11:25 -0300] "GET /jsf-livraria/login.xhtml HTTP/1.1" 302 -
0:0:0:0:0:0:0:1 - - [25/Sep/2017:23:11:25 -0300] "GET /jsf-livraria/login.xhtml HTTP/1.1" 302 -
0:0:0:0:0:0:0:1 - - [25/Sep/2017:23:11:25 -0300] "GET /jsf-livraria/login.xhtml HTTP/1.1" 302 -
0:0:0:0:0:0:0:1 - - [25/Sep/2017:23:11:25 -0300] "GET /jsf-livraria/login.xhtml HTTP/1.1" 302 -
0:0:0:0:0:0:0:1 - - [25/Sep/2017:23:11:25 -0300] "GET /jsf-livraria/login.xhtml HTTP/1.1" 302 -
0:0:0:0:0:0:0:1 - - [25/Sep/2017:23:11:25 -0300] "GET /jsf-livraria/login.xhtml HTTP/1.1" 302 -
0:0:0:0:0:0:0:1 - - [25/Sep/2017:23:11:25 -0300] "GET /jsf-livraria/login.xhtml HTTP/1.1" 302 -
0:0:0:0:0:0:0:1 - - [25/Sep/2017:23:11:25 -0300] "GET /jsf-livraria/login.xhtml HTTP/1.1" 302 -
0:0:0:0:0:0:0:1 - - [25/Sep/2017:23:11:25 -0300] "GET /jsf-livraria/login.xhtml HTTP/1.1" 302 -
0:0:0:0:0:0:0:1 - - [25/Sep/2017:23:11:25 -0300] "GET /jsf-livraria/login.xhtml HTTP/1.1" 302 -
0:0:0:0:0:0:0:1 - - [25/Sep/2017:23:11:25 -0300] "GET /jsf-livraria/login.xhtml HTTP/1.1" 302 -
0:0:0:0:0:0:0:1 - - [25/Sep/2017:23:11:25 -0300] "GET /jsf-livraria/login.xhtml HTTP/1.1" 302 -
0:0:0:0:0:0:0:1 - - [25/Sep/2017:23:11:25 -0300] "GET /jsf-livraria/login.xhtml HTTP/1.1" 302 -
0:0:0:0:0:0:0:1 - - [25/Sep/2017:23:11:25 -0300] "GET /jsf-livraria/login.xhtml HTTP/1.1" 302 -
0:0:0:0:0:0:0:1 - - [25/Sep/2017:23:11:25 -0300] "GET /jsf-livraria/login.xhtml HTTP/1.1" 302 -
0:0:0:0:0:0:0:1 - - [25/Sep/2017:23:11:25 -0300] "GET /jsf-livraria/login.xhtml HTTP/1.1" 302 -
0:0:0:0:0:0:0:1 - - [25/Sep/2017:23:11:25 -0300] "GET /jsf-livraria/login.xhtml HTTP/1.1" 302 -
127.0.0.1 - - [25/Sep/2017:23:11:58 -0300] "GET / HTTP/1.1" 404 1081
0:0:0:0:0:0:0:1 - - [25/Sep/2017:23:11:58 -0300] "GET /jsf-livraria/login.xhtml HTTP/1.1" 302 -
0:0:0:0:0:0:0:1 - - [25/Sep/2017:23:11:58 -0300] "GET /jsf-livraria/login.xhtml HTTP/1.1" 302 -
0:0:0:0:0:0:0:1 - - [25/Sep/2017:23:11:58 -0300] "GET /jsf-livraria/login.xhtml HTTP/1.1" 302 -
0:0:0:0:0:0:0:1 - - [25/Sep/2017:23:11:58 -0300] "GET /jsf-livraria/login.xhtml HTTP/1.1" 302 -
0:0:0:0:0:0:0:1 - - [25/Sep/2017:23:11:58 -0300] "GET /jsf-livraria/login.xhtml HTTP/1.1" 302 -
0:0:0:0:0:0:0:1 - - [25/Sep/2017:23:11:58 -0300] "GET /jsf-livraria/login.xhtml HTTP/1.1" 302 -
0:0:0:0:0:0:0:1 - - [25/Sep/2017:23:11:58 -0300] "GET /jsf-livraria/login.xhtml HTTP/1.1" 302 -
0:0:0:0:0:0:0:1 - - [25/Sep/2017:23:11:58 -0300] "GET /jsf-livraria/login.xhtml HTTP/1.1" 302 -
0:0:0:0:0:0:0:1 - - [25/Sep/2017:23:11:58 -0300] "GET /jsf-livraria/login.xhtml HTTP/1.1" 302 -
0:0:0:0:0:0:0:1 - - [25/Sep/2017:23:11:58 -0300] "GET /jsf-livraria/login.xhtml HTTP/1.1" 302 -
0:0:0:0:0:0:0:1 - - [25/Sep/2017:23:11:58 -0300] "GET /jsf-livraria/login.xhtml HTTP/1.1" 302 -
0:0:0:0:0:0:0:1 - - [25/Sep/2017:23:11:58 -0300] "GET /jsf-livraria/login.xhtml HTTP/1.1" 302 -
0:0:0:0:0:0:0:1 - - [25/Sep/2017:23:11:58 -0300] "GET /jsf-livraria/login.xhtml HTTP/1.1" 302 -
0:0:0:0:0:0:0:1 - - [25/Sep/2017:23:11:58 -0300] "GET /jsf-livraria/login.xhtml HTTP/1.1" 302 -
0:0:0:0:0:0:0:1 - - [25/Sep/2017:23:11:58 -0300] "GET /jsf-livraria/login.xhtml HTTP/1.1" 302 -
0:0:0:0:0:0:0:1 - - [25/Sep/2017:23:11:58 -0300] "GET /jsf-livraria/login.xhtml HTTP/1.1" 302 -
0:0:0:0:0:0:0:1 - - [25/Sep/2017:23:11:58 -0300] "GET /jsf-livraria/login.xhtml HTTP/1.1" 302 -
0:0:0:0:0:0:0:1 - - [25/Sep/2017:23:11:58 -0300] "GET /jsf-livraria/login.xhtml HTTP/1.1" 302 -
0:0:0:0:0:0:0:1 - - [25/Sep/2017:23:11:58 -0300] "GET /jsf-livraria/login.xhtml HTTP/1.1" 302 -
0:0:0:0:0:0:0:1 - - [25/Sep/2017:23:11:58 -0300] "GET /jsf-livraria/login.xhtml HTTP/1.1" 302 -
0:0:0:0:0:0:0:1 - - [25/Sep/2017:23:11:58 -0300] "GET /jsf-livraria/login.xhtml HTTP/1.1" 302 -
0:0:0:0:0:0:0:1 - - [25/Sep/2017:23:12:04 -0300] "GET /jsf-livraria/login.xhtml HTTP/1.1" 302 -
0:0:0:0:0:0:0:1 - - [25/Sep/2017:23:12:04 -0300] "GET /jsf-livraria/login.xhtml HTTP/1.1" 302 -
0:0:0:0:0:0:0:1 - - [25/Sep/2017:23:12:04 -0300] "GET /jsf-livraria/login.xhtml HTTP/1.1" 302 -
0:0:0:0:0:0:0:1 - - [25/Sep/2017:23:12:04 -0300] "GET /jsf-livraria/login.xhtml HTTP/1.1" 302 -
0:0:0:0:0:0:0:1 - - [25/Sep/2017:23:12:04 -0300] "GET /jsf-livraria/login.xhtml HTTP/1.1" 302 -
0:0:0:0:0:0:0:1 - - [25/Sep/2017:23:12:05 -0300] "GET /jsf-livraria/login.xhtml HTTP/1.1" 302 -
0:0:0:0:0:0:0:1 - - [25/Sep/2017:23:12:05 -0300] "GET /jsf-livraria/login.xhtml HTTP/1.1" 302 -
0:0:0:0:0:0:0:1 - - [25/Sep/2017:23:12:05 -0300] "GET /jsf-livraria/login.xhtml HTTP/1.1" 302 -
0:0:0:0:0:0:0:1 - - [25/Sep/2017:23:12:05 -0300] "GET /jsf-livraria/login.xhtml HTTP/1.1" 302 -
0:0:0:0:0:0:0:1 - - [25/Sep/2017:23:12:05 -0300] "GET /jsf-livraria/login.xhtml HTTP/1.1" 302 -
0:0:0:0:0:0:0:1 - - [25/Sep/2017:23:12:05 -0300] "GET /jsf-livraria/login.xhtml HTTP/1.1" 302 -
0:0:0:0:0:0:0:1 - - [25/Sep/2017:23:12:05 -0300] "GET /jsf-livraria/login.xhtml HTTP/1.1" 302 -
0:0:0:0:0:0:0:1 - - [25/Sep/2017:23:12:05 -0300] "GET /jsf-livraria/login.xhtml HTTP/1.1" 302 -
0:0:0:0:0:0:0:1 - - [25/Sep/2017:23:12:05 -0300] "GET /jsf-livraria/login.xhtml HTTP/1.1" 302 -
0:0:0:0:0:0:0:1 - - [25/Sep/2017:23:12:05 -0300] "GET /jsf-livraria/login.xhtml HTTP/1.1" 302 -
0:0:0:0:0:0:0:1 - - [25/Sep/2017:23:12:05 -0300] "GET /jsf-livraria/login.xhtml HTTP/1.1" 302 -
0:0:0:0:0:0:0:1 - - [25/Sep/2017:23:12:05 -0300] "GET /jsf-livraria/login.xhtml HTTP/1.1" 302 -
0:0:0:0:0:0:0:1 - - [25/Sep/2017:23:12:05 -0300] "GET /jsf-livraria/login.xhtml HTTP/1.1" 302 -
0:0:0:0:0:0:0:1 - - [25/Sep/2017:23:12:05 -0300] "GET /jsf-livraria/login.xhtml HTTP/1.1" 302 -
0:0:0:0:0:0:0:1 - - [25/Sep/2017:23:12:05 -0300] "GET /jsf-livraria/login.xhtml HTTP/1.1" 302 -
0:0:0:0:0:0:0:1 - - [25/Sep/2017:23:12:05 -0300] "GET /jsf-livraria/login.xhtml HTTP/1.1" 302 -
127.0.0.1 - - [25/Sep/2017:23:12:56 -0300] "GET / HTTP/1.1" 404 1081
0:0:0:0:0:0:0:1 - - [25/Sep/2017:23:14:41 -0300] "GET /jsf-livraria/login.xhtml HTTP/1.1" 302 -
0:0:0:0:0:0:0:1 - - [25/Sep/2017:23:14:46 -0300] "GET /jsf-livraria/login.xhtml HTTP/1.1" 302 -
0:0:0:0:0:0:0:1 - - [25/Sep/2017:23:14:47 -0300] "GET /jsf-livraria/login.xhtml HTTP/1.1" 302 -
0:0:0:0:0:0:0:1 - - [25/Sep/2017:23:14:47 -0300] "GET /jsf-livraria/login.xhtml HTTP/1.1" 302 -
0:0:0:0:0:0:0:1 - - [25/Sep/2017:23:14:48 -0300] "GET /jsf-livraria/login.xhtml HTTP/1.1" 302 -
0:0:0:0:0:0:0:1 - - [25/Sep/2017:23:14:48 -0300] "GET /jsf-livraria/login.xhtml HTTP/1.1" 302 -
0:0:0:0:0:0:0:1 - - [25/Sep/2017:23:14:49 -0300] "GET /jsf-livraria/login.xhtml HTTP/1.1" 302 -
0:0:0:0:0:0:0:1 - - [25/Sep/2017:23:14:49 -0300] "GET /jsf-livraria/login.xhtml HTTP/1.1" 302 -
0:0:0:0:0:0:0:1 - - [25/Sep/2017:23:14:49 -0300] "GET /jsf-livraria/login.xhtml HTTP/1.1" 302 -
0:0:0:0:0:0:0:1 - - [25/Sep/2017:23:14:50 -0300] "GET /jsf-livraria/login.xhtml HTTP/1.1" 302 -
0:0:0:0:0:0:0:1 - - [25/Sep/2017:23:14:51 -0300] "GET /jsf-livraria/login.xhtml HTTP/1.1" 302 -
0:0:0:0:0:0:0:1 - - [25/Sep/2017:23:14:51 -0300] "GET /jsf-livraria/login.xhtml HTTP/1.1" 302 -
0:0:0:0:0:0:0:1 - - [25/Sep/2017:23:14:52 -0300] "GET /jsf-livraria/login.xhtml HTTP/1.1" 302 -
0:0:0:0:0:0:0:1 - - [25/Sep/2017:23:14:52 -0300] "GET /jsf-livraria/login.xhtml HTTP/1.1" 302 -
0:0:0:0:0:0:0:1 - - [25/Sep/2017:23:14:53 -0300] "GET /jsf-livraria/login.xhtml HTTP/1.1" 302 -
0:0:0:0:0:0:0:1 - - [25/Sep/2017:23:15:02 -0300] "GET /jsf-livraria/login.xhtml HTTP/1.1" 302 -
0:0:0:0:0:0:0:1 - - [25/Sep/2017:23:15:02 -0300] "GET /jsf-livraria/login.xhtml HTTP/1.1" 302 -
0:0:0:0:0:0:0:1 - - [25/Sep/2017:23:15:02 -0300] "GET /jsf-livraria/login.xhtml HTTP/1.1" 302 -
0:0:0:0:0:0:0:1 - - [25/Sep/2017:23:15:02 -0300] "GET /jsf-livraria/login.xhtml HTTP/1.1" 302 -
0:0:0:0:0:0:0:1 - - [25/Sep/2017:23:15:02 -0300] "GET /jsf-livraria/login.xhtml HTTP/1.1" 302 -
0:0:0:0:0:0:0:1 - - [25/Sep/2017:23:15:02 -0300] "GET /jsf-livraria/login.xhtml HTTP/1.1" 302 -
127.0.0.1 - - [25/Sep/2017:23:15:31 -0300] "GET / HTTP/1.1" 404 1081
127.0.0.1 - - [25/Sep/2017:23:16:51 -0300] "GET / HTTP/1.1" 404 1081
0:0:0:0:0:0:0:1 - - [25/Sep/2017:23:16:56 -0300] "GET /jsf-livraria/login.xhtml HTTP/1.1" 302 -
0:0:0:0:0:0:0:1 - - [25/Sep/2017:23:16:56 -0300] "GET /jsf-livraria/login.xhtml HTTP/1.1" 302 -
0:0:0:0:0:0:0:1 - - [25/Sep/2017:23:16:56 -0300] "GET /jsf-livraria/login.xhtml HTTP/1.1" 302 -
0:0:0:0:0:0:0:1 - - [25/Sep/2017:23:16:56 -0300] "GET /jsf-livraria/login.xhtml HTTP/1.1" 302 -
0:0:0:0:0:0:0:1 - - [25/Sep/2017:23:16:56 -0300] "GET /jsf-livraria/login.xhtml HTTP/1.1" 302 -
0:0:0:0:0:0:0:1 - - [25/Sep/2017:23:16:56 -0300] "GET /jsf-livraria/login.xhtml HTTP/1.1" 302 -
0:0:0:0:0:0:0:1 - - [25/Sep/2017:23:16:56 -0300] "GET /jsf-livraria/login.xhtml HTTP/1.1" 302 -
0:0:0:0:0:0:0:1 - - [25/Sep/2017:23:16:56 -0300] "GET /jsf-livraria/login.xhtml HTTP/1.1" 302 -
0:0:0:0:0:0:0:1 - - [25/Sep/2017:23:16:56 -0300] "GET /jsf-livraria/login.xhtml HTTP/1.1" 302 -
0:0:0:0:0:0:0:1 - - [25/Sep/2017:23:16:56 -0300] "GET /jsf-livraria/login.xhtml HTTP/1.1" 302 -
0:0:0:0:0:0:0:1 - - [25/Sep/2017:23:16:56 -0300] "GET /jsf-livraria/login.xhtml HTTP/1.1" 302 -
0:0:0:0:0:0:0:1 - - [25/Sep/2017:23:16:56 -0300] "GET /jsf-livraria/login.xhtml HTTP/1.1" 302 -
0:0:0:0:0:0:0:1 - - [25/Sep/2017:23:16:56 -0300] "GET /jsf-livraria/login.xhtml HTTP/1.1" 302 -
0:0:0:0:0:0:0:1 - - [25/Sep/2017:23:16:56 -0300] "GET /jsf-livraria/login.xhtml HTTP/1.1" 302 -
0:0:0:0:0:0:0:1 - - [25/Sep/2017:23:16:56 -0300] "GET /jsf-livraria/login.xhtml HTTP/1.1" 302 -
0:0:0:0:0:0:0:1 - - [25/Sep/2017:23:16:56 -0300] "GET /jsf-livraria/login.xhtml HTTP/1.1" 302 -
0:0:0:0:0:0:0:1 - - [25/Sep/2017:23:16:56 -0300] "GET /jsf-livraria/login.xhtml HTTP/1.1" 302 -
0:0:0:0:0:0:0:1 - - [25/Sep/2017:23:16:56 -0300] "GET /jsf-livraria/login.xhtml HTTP/1.1" 302 -
0:0:0:0:0:0:0:1 - - [25/Sep/2017:23:16:56 -0300] "GET /jsf-livraria/login.xhtml HTTP/1.1" 302 -
0:0:0:0:0:0:0:1 - - [25/Sep/2017:23:16:56 -0300] "GET /jsf-livraria/login.xhtml HTTP/1.1" 302 -
0:0:0:0:0:0:0:1 - - [25/Sep/2017:23:16:56 -0300] "GET /jsf-livraria/login.xhtml HTTP/1.1" 302 -
127.0.0.1 - - [25/Sep/2017:23:18:12 -0300] "GET / HTTP/1.1" 404 1081
127.0.0.1 - - [25/Sep/2017:23:19:55 -0300] "GET / HTTP/1.1" 404 1081
0:0:0:0:0:0:0:1 - - [25/Sep/2017:23:20:00 -0300] "GET /jsf-livraria/login.xhtml HTTP/1.1" 302 -
0:0:0:0:0:0:0:1 - - [25/Sep/2017:23:20:01 -0300] "GET /jsf-livraria/login.xhtml HTTP/1.1" 302 -
0:0:0:0:0:0:0:1 - - [25/Sep/2017:23:20:05 -0300] "GET /jsf-livraria/login.xhtml HTTP/1.1" 302 -
0:0:0:0:0:0:0:1 - - [25/Sep/2017:23:20:05 -0300] "GET /jsf-livraria/login.xhtml HTTP/1.1" 302 -
0:0:0:0:0:0:0:1 - - [25/Sep/2017:23:20:05 -0300] "GET /jsf-livraria/login.xhtml HTTP/1.1" 302 -
0:0:0:0:0:0:0:1 - - [25/Sep/2017:23:20:05 -0300] "GET /jsf-livraria/login.xhtml HTTP/1.1" 302 -
0:0:0:0:0:0:0:1 - - [25/Sep/2017:23:20:05 -0300] "GET /jsf-livraria/login.xhtml HTTP/1.1" 302 -
0:0:0:0:0:0:0:1 - - [25/Sep/2017:23:20:06 -0300] "GET /jsf-livraria/login.xhtml HTTP/1.1" 302 -
0:0:0:0:0:0:0:1 - - [25/Sep/2017:23:20:06 -0300] "GET /jsf-livraria/login.xhtml HTTP/1.1" 302 -
0:0:0:0:0:0:0:1 - - [25/Sep/2017:23:20:06 -0300] "GET /jsf-livraria/login.xhtml HTTP/1.1" 302 -
0:0:0:0:0:0:0:1 - - [25/Sep/2017:23:20:06 -0300] "GET /jsf-livraria/login.xhtml HTTP/1.1" 302 -
0:0:0:0:0:0:0:1 - - [25/Sep/2017:23:20:06 -0300] "GET /jsf-livraria/login.xhtml HTTP/1.1" 302 -
0:0:0:0:0:0:0:1 - - [25/Sep/2017:23:20:06 -0300] "GET /jsf-livraria/login.xhtml HTTP/1.1" 302 -
0:0:0:0:0:0:0:1 - - [25/Sep/2017:23:20:06 -0300] "GET /jsf-livraria/login.xhtml HTTP/1.1" 302 -
0:0:0:0:0:0:0:1 - - [25/Sep/2017:23:20:06 -0300] "GET /jsf-livraria/login.xhtml HTTP/1.1" 302 -
0:0:0:0:0:0:0:1 - - [25/Sep/2017:23:20:06 -0300] "GET /jsf-livraria/login.xhtml HTTP/1.1" 302 -
0:0:0:0:0:0:0:1 - - [25/Sep/2017:23:20:06 -0300] "GET /jsf-livraria/login.xhtml HTTP/1.1" 302 -
0:0:0:0:0:0:0:1 - - [25/Sep/2017:23:20:06 -0300] "GET /jsf-livraria/login.xhtml HTTP/1.1" 302 -
0:0:0:0:0:0:0:1 - - [25/Sep/2017:23:20:06 -0300] "GET /jsf-livraria/login.xhtml HTTP/1.1" 302 -
0:0:0:0:0:0:0:1 - - [25/Sep/2017:23:20:06 -0300] "GET /jsf-livraria/login.xhtml HTTP/1.1" 302 -
0:0:0:0:0:0:0:1 - - [25/Sep/2017:23:20:06 -0300] "GET /jsf-livraria/login.xhtml HTTP/1.1" 302 -
0:0:0:0:0:0:0:1 - - [25/Sep/2017:23:20:13 -0300] "GET /jsf-livraria/login.xhtml HTTP/1.1" 302 -
0:0:0:0:0:0:0:1 - - [25/Sep/2017:23:20:13 -0300] "GET /jsf-livraria/login.xhtml HTTP/1.1" 302 -
0:0:0:0:0:0:0:1 - - [25/Sep/2017:23:20:13 -0300] "GET /jsf-livraria/login.xhtml HTTP/1.1" 302 -
0:0:0:0:0:0:0:1 - - [25/Sep/2017:23:20:13 -0300] "GET /jsf-livraria/login.xhtml HTTP/1.1" 302 -
0:0:0:0:0:0:0:1 - - [25/Sep/2017:23:20:13 -0300] "GET /jsf-livraria/login.xhtml HTTP/1.1" 302 -
0:0:0:0:0:0:0:1 - - [25/Sep/2017:23:20:13 -0300] "GET /jsf-livraria/login.xhtml HTTP/1.1" 302 -
0:0:0:0:0:0:0:1 - - [25/Sep/2017:23:20:13 -0300] "GET /jsf-livraria/login.xhtml HTTP/1.1" 302 -
0:0:0:0:0:0:0:1 - - [25/Sep/2017:23:20:13 -0300] "GET /jsf-livraria/login.xhtml HTTP/1.1" 302 -
0:0:0:0:0:0:0:1 - - [25/Sep/2017:23:20:13 -0300] "GET /jsf-livraria/login.xhtml HTTP/1.1" 302 -
0:0:0:0:0:0:0:1 - - [25/Sep/2017:23:20:13 -0300] "GET /jsf-livraria/login.xhtml HTTP/1.1" 302 -
0:0:0:0:0:0:0:1 - - [25/Sep/2017:23:20:13 -0300] "GET /jsf-livraria/login.xhtml HTTP/1.1" 302 -
0:0:0:0:0:0:0:1 - - [25/Sep/2017:23:20:13 -0300] "GET /jsf-livraria/login.xhtml HTTP/1.1" 302 -
0:0:0:0:0:0:0:1 - - [25/Sep/2017:23:20:13 -0300] "GET /jsf-livraria/login.xhtml HTTP/1.1" 302 -
0:0:0:0:0:0:0:1 - - [25/Sep/2017:23:20:13 -0300] "GET /jsf-livraria/login.xhtml HTTP/1.1" 302 -
0:0:0:0:0:0:0:1 - - [25/Sep/2017:23:20:13 -0300] "GET /jsf-livraria/login.xhtml HTTP/1.1" 302 -
0:0:0:0:0:0:0:1 - - [25/Sep/2017:23:20:13 -0300] "GET /jsf-livraria/login.xhtml HTTP/1.1" 302 -
0:0:0:0:0:0:0:1 - - [25/Sep/2017:23:20:13 -0300] "GET /jsf-livraria/login.xhtml HTTP/1.1" 302 -
0:0:0:0:0:0:0:1 - - [25/Sep/2017:23:20:13 -0300] "GET /jsf-livraria/login.xhtml HTTP/1.1" 302 -
0:0:0:0:0:0:0:1 - - [25/Sep/2017:23:20:13 -0300] "GET /jsf-livraria/login.xhtml HTTP/1.1" 302 -
0:0:0:0:0:0:0:1 - - [25/Sep/2017:23:20:13 -0300] "GET /jsf-livraria/login.xhtml HTTP/1.1" 302 -
0:0:0:0:0:0:0:1 - - [25/Sep/2017:23:20:13 -0300] "GET /jsf-livraria/login.xhtml HTTP/1.1" 302 -
0:0:0:0:0:0:0:1 - - [25/Sep/2017:23:20:44 -0300] "GET /jsf-livraria/login.xhtml HTTP/1.1" 302 -
0:0:0:0:0:0:0:1 - - [25/Sep/2017:23:20:44 -0300] "GET /jsf-livraria/login.xhtml HTTP/1.1" 302 -
0:0:0:0:0:0:0:1 - - [25/Sep/2017:23:20:44 -0300] "GET /jsf-livraria/login.xhtml HTTP/1.1" 302 -
0:0:0:0:0:0:0:1 - - [25/Sep/2017:23:20:44 -0300] "GET /jsf-livraria/login.xhtml HTTP/1.1" 302 -
0:0:0:0:0:0:0:1 - - [25/Sep/2017:23:20:44 -0300] "GET /jsf-livraria/login.xhtml HTTP/1.1" 302 -
0:0:0:0:0:0:0:1 - - [25/Sep/2017:23:20:44 -0300] "GET /jsf-livraria/login.xhtml HTTP/1.1" 302 -
0:0:0:0:0:0:0:1 - - [25/Sep/2017:23:20:44 -0300] "GET /jsf-livraria/login.xhtml HTTP/1.1" 302 -
0:0:0:0:0:0:0:1 - - [25/Sep/2017:23:20:44 -0300] "GET /jsf-livraria/login.xhtml HTTP/1.1" 302 -
0:0:0:0:0:0:0:1 - - [25/Sep/2017:23:20:44 -0300] "GET /jsf-livraria/login.xhtml HTTP/1.1" 302 -
0:0:0:0:0:0:0:1 - - [25/Sep/2017:23:20:44 -0300] "GET /jsf-livraria/login.xhtml HTTP/1.1" 302 -
0:0:0:0:0:0:0:1 - - [25/Sep/2017:23:20:44 -0300] "GET /jsf-livraria/login.xhtml HTTP/1.1" 302 -
0:0:0:0:0:0:0:1 - - [25/Sep/2017:23:20:44 -0300] "GET /jsf-livraria/login.xhtml HTTP/1.1" 302 -
0:0:0:0:0:0:0:1 - - [25/Sep/2017:23:20:44 -0300] "GET /jsf-livraria/login.xhtml HTTP/1.1" 302 -
0:0:0:0:0:0:0:1 - - [25/Sep/2017:23:20:44 -0300] "GET /jsf-livraria/login.xhtml HTTP/1.1" 302 -
0:0:0:0:0:0:0:1 - - [25/Sep/2017:23:20:44 -0300] "GET /jsf-livraria/login.xhtml HTTP/1.1" 302 -
0:0:0:0:0:0:0:1 - - [25/Sep/2017:23:20:44 -0300] "GET /jsf-livraria/login.xhtml HTTP/1.1" 302 -
0:0:0:0:0:0:0:1 - - [25/Sep/2017:23:20:44 -0300] "GET /jsf-livraria/login.xhtml HTTP/1.1" 302 -
0:0:0:0:0:0:0:1 - - [25/Sep/2017:23:20:44 -0300] "GET /jsf-livraria/login.xhtml HTTP/1.1" 302 -
0:0:0:0:0:0:0:1 - - [25/Sep/2017:23:20:44 -0300] "GET /jsf-livraria/login.xhtml HTTP/1.1" 302 -
0:0:0:0:0:0:0:1 - - [25/Sep/2017:23:20:44 -0300] "GET /jsf-livraria/login.xhtml HTTP/1.1" 302 -
0:0:0:0:0:0:0:1 - - [25/Sep/2017:23:20:44 -0300] "GET /jsf-livraria/login.xhtml HTTP/1.1" 302 -
0:0:0:0:0:0:0:1 - - [25/Sep/2017:23:21:44 -0300] "GET /jsf-livraria/login.xhtml HTTP/1.1" 302 -
0:0:0:0:0:0:0:1 - - [25/Sep/2017:23:21:44 -0300] "GET /jsf-livraria/login.xhtml HTTP/1.1" 302 -
0:0:0:0:0:0:0:1 - - [25/Sep/2017:23:21:44 -0300] "GET /jsf-livraria/login.xhtml HTTP/1.1" 302 -
0:0:0:0:0:0:0:1 - - [25/Sep/2017:23:21:45 -0300] "GET /jsf-livraria/login.xhtml HTTP/1.1" 302 -
0:0:0:0:0:0:0:1 - - [25/Sep/2017:23:21:45 -0300] "GET /jsf-livraria/login.xhtml HTTP/1.1" 302 -
0:0:0:0:0:0:0:1 - - [25/Sep/2017:23:21:45 -0300] "GET /jsf-livraria/login.xhtml HTTP/1.1" 302 -
0:0:0:0:0:0:0:1 - - [25/Sep/2017:23:21:45 -0300] "GET /jsf-livraria/login.xhtml HTTP/1.1" 302 -
0:0:0:0:0:0:0:1 - - [25/Sep/2017:23:21:45 -0300] "GET /jsf-livraria/login.xhtml HTTP/1.1" 302 -
0:0:0:0:0:0:0:1 - - [25/Sep/2017:23:21:45 -0300] "GET /jsf-livraria/login.xhtml HTTP/1.1" 302 -
0:0:0:0:0:0:0:1 - - [25/Sep/2017:23:21:45 -0300] "GET /jsf-livraria/login.xhtml HTTP/1.1" 302 -
0:0:0:0:0:0:0:1 - - [25/Sep/2017:23:21:45 -0300] "GET /jsf-livraria/login.xhtml HTTP/1.1" 302 -
0:0:0:0:0:0:0:1 - - [25/Sep/2017:23:21:45 -0300] "GET /jsf-livraria/login.xhtml HTTP/1.1" 302 -
0:0:0:0:0:0:0:1 - - [25/Sep/2017:23:21:45 -0300] "GET /jsf-livraria/login.xhtml HTTP/1.1" 302 -
0:0:0:0:0:0:0:1 - - [25/Sep/2017:23:21:45 -0300] "GET /jsf-livraria/login.xhtml HTTP/1.1" 302 -
0:0:0:0:0:0:0:1 - - [25/Sep/2017:23:21:45 -0300] "GET /jsf-livraria/login.xhtml HTTP/1.1" 302 -
0:0:0:0:0:0:0:1 - - [25/Sep/2017:23:21:45 -0300] "GET /jsf-livraria/login.xhtml HTTP/1.1" 302 -
0:0:0:0:0:0:0:1 - - [25/Sep/2017:23:21:45 -0300] "GET /jsf-livraria/login.xhtml HTTP/1.1" 302 -
0:0:0:0:0:0:0:1 - - [25/Sep/2017:23:21:45 -0300] "GET /jsf-livraria/login.xhtml HTTP/1.1" 302 -
0:0:0:0:0:0:0:1 - - [25/Sep/2017:23:21:45 -0300] "GET /jsf-livraria/login.xhtml HTTP/1.1" 302 -
0:0:0:0:0:0:0:1 - - [25/Sep/2017:23:21:45 -0300] "GET /jsf-livraria/login.xhtml HTTP/1.1" 302 -
0:0:0:0:0:0:0:1 - - [25/Sep/2017:23:21:45 -0300] "GET /jsf-livraria/login.xhtml HTTP/1.1" 302 -
127.0.0.1 - - [25/Sep/2017:23:22:13 -0300] "GET / HTTP/1.1" 404 1081
0:0:0:0:0:0:0:1 - - [25/Sep/2017:23:22:21 -0300] "GET /jsf-livraria/login.xhtml HTTP/1.1" 302 -
0:0:0:0:0:0:0:1 - - [25/Sep/2017:23:22:21 -0300] "GET /jsf-livraria/login.xhtml HTTP/1.1" 302 -
0:0:0:0:0:0:0:1 - - [25/Sep/2017:23:22:21 -0300] "GET /jsf-livraria/login.xhtml HTTP/1.1" 302 -
0:0:0:0:0:0:0:1 - - [25/Sep/2017:23:22:21 -0300] "GET /jsf-livraria/login.xhtml HTTP/1.1" 302 -
0:0:0:0:0:0:0:1 - - [25/Sep/2017:23:22:21 -0300] "GET /jsf-livraria/login.xhtml HTTP/1.1" 302 -
0:0:0:0:0:0:0:1 - - [25/Sep/2017:23:22:21 -0300] "GET /jsf-livraria/login.xhtml HTTP/1.1" 302 -
0:0:0:0:0:0:0:1 - - [25/Sep/2017:23:22:21 -0300] "GET /jsf-livraria/login.xhtml HTTP/1.1" 302 -
0:0:0:0:0:0:0:1 - - [25/Sep/2017:23:22:21 -0300] "GET /jsf-livraria/login.xhtml HTTP/1.1" 302 -
0:0:0:0:0:0:0:1 - - [25/Sep/2017:23:22:21 -0300] "GET /jsf-livraria/login.xhtml HTTP/1.1" 302 -
0:0:0:0:0:0:0:1 - - [25/Sep/2017:23:22:21 -0300] "GET /jsf-livraria/login.xhtml HTTP/1.1" 302 -
0:0:0:0:0:0:0:1 - - [25/Sep/2017:23:22:21 -0300] "GET /jsf-livraria/login.xhtml HTTP/1.1" 302 -
0:0:0:0:0:0:0:1 - - [25/Sep/2017:23:22:21 -0300] "GET /jsf-livraria/login.xhtml HTTP/1.1" 302 -
0:0:0:0:0:0:0:1 - - [25/Sep/2017:23:22:21 -0300] "GET /jsf-livraria/login.xhtml HTTP/1.1" 302 -
0:0:0:0:0:0:0:1 - - [25/Sep/2017:23:22:21 -0300] "GET /jsf-livraria/login.xhtml HTTP/1.1" 302 -
0:0:0:0:0:0:0:1 - - [25/Sep/2017:23:22:21 -0300] "GET /jsf-livraria/login.xhtml HTTP/1.1" 302 -
0:0:0:0:0:0:0:1 - - [25/Sep/2017:23:22:21 -0300] "GET /jsf-livraria/login.xhtml HTTP/1.1" 302 -
0:0:0:0:0:0:0:1 - - [25/Sep/2017:23:22:21 -0300] "GET /jsf-livraria/login.xhtml HTTP/1.1" 302 -
0:0:0:0:0:0:0:1 - - [25/Sep/2017:23:22:21 -0300] "GET /jsf-livraria/login.xhtml HTTP/1.1" 302 -
0:0:0:0:0:0:0:1 - - [25/Sep/2017:23:22:21 -0300] "GET /jsf-livraria/login.xhtml HTTP/1.1" 302 -
0:0:0:0:0:0:0:1 - - [25/Sep/2017:23:22:21 -0300] "GET /jsf-livraria/login.xhtml HTTP/1.1" 302 -
0:0:0:0:0:0:0:1 - - [25/Sep/2017:23:22:21 -0300] "GET /jsf-livraria/login.xhtml HTTP/1.1" 302 -
0:0:0:0:0:0:0:1 - - [25/Sep/2017:23:22:26 -0300] "GET /jsf-livraria/login.xhtml HTTP/1.1" 302 -
0:0:0:0:0:0:0:1 - - [25/Sep/2017:23:22:26 -0300] "GET /jsf-livraria/login.xhtml HTTP/1.1" 302 -
0:0:0:0:0:0:0:1 - - [25/Sep/2017:23:22:26 -0300] "GET /jsf-livraria/login.xhtml HTTP/1.1" 302 -
0:0:0:0:0:0:0:1 - - [25/Sep/2017:23:22:26 -0300] "GET /jsf-livraria/login.xhtml HTTP/1.1" 302 -
0:0:0:0:0:0:0:1 - - [25/Sep/2017:23:22:26 -0300] "GET /jsf-livraria/login.xhtml HTTP/1.1" 302 -
0:0:0:0:0:0:0:1 - - [25/Sep/2017:23:22:26 -0300] "GET /jsf-livraria/login.xhtml HTTP/1.1" 302 -
0:0:0:0:0:0:0:1 - - [25/Sep/2017:23:22:26 -0300] "GET /jsf-livraria/login.xhtml HTTP/1.1" 302 -
0:0:0:0:0:0:0:1 - - [25/Sep/2017:23:22:26 -0300] "GET /jsf-livraria/login.xhtml HTTP/1.1" 302 -
0:0:0:0:0:0:0:1 - - [25/Sep/2017:23:22:26 -0300] "GET /jsf-livraria/login.xhtml HTTP/1.1" 302 -
0:0:0:0:0:0:0:1 - - [25/Sep/2017:23:22:26 -0300] "GET /jsf-livraria/login.xhtml HTTP/1.1" 302 -
0:0:0:0:0:0:0:1 - - [25/Sep/2017:23:22:26 -0300] "GET /jsf-livraria/login.xhtml HTTP/1.1" 302 -
0:0:0:0:0:0:0:1 - - [25/Sep/2017:23:22:26 -0300] "GET /jsf-livraria/login.xhtml HTTP/1.1" 302 -
0:0:0:0:0:0:0:1 - - [25/Sep/2017:23:22:26 -0300] "GET /jsf-livraria/login.xhtml HTTP/1.1" 302 -
0:0:0:0:0:0:0:1 - - [25/Sep/2017:23:22:26 -0300] "GET /jsf-livraria/login.xhtml HTTP/1.1" 302 -
0:0:0:0:0:0:0:1 - - [25/Sep/2017:23:22:26 -0300] "GET /jsf-livraria/login.xhtml HTTP/1.1" 302 -
0:0:0:0:0:0:0:1 - - [25/Sep/2017:23:22:26 -0300] "GET /jsf-livraria/login.xhtml HTTP/1.1" 302 -
0:0:0:0:0:0:0:1 - - [25/Sep/2017:23:22:26 -0300] "GET /jsf-livraria/login.xhtml HTTP/1.1" 302 -
0:0:0:0:0:0:0:1 - - [25/Sep/2017:23:22:26 -0300] "GET /jsf-livraria/login.xhtml HTTP/1.1" 302 -
0:0:0:0:0:0:0:1 - - [25/Sep/2017:23:22:26 -0300] "GET /jsf-livraria/login.xhtml HTTP/1.1" 302 -
0:0:0:0:0:0:0:1 - - [25/Sep/2017:23:22:26 -0300] "GET /jsf-livraria/login.xhtml HTTP/1.1" 302 -
0:0:0:0:0:0:0:1 - - [25/Sep/2017:23:22:26 -0300] "GET /jsf-livraria/login.xhtml HTTP/1.1" 302 -
0:0:0:0:0:0:0:1 - - [25/Sep/2017:23:22:27 -0300] "GET /jsf-livraria/login.xhtml HTTP/1.1" 302 -
0:0:0:0:0:0:0:1 - - [25/Sep/2017:23:22:27 -0300] "GET /jsf-livraria/login.xhtml HTTP/1.1" 302 -
0:0:0:0:0:0:0:1 - - [25/Sep/2017:23:22:27 -0300] "GET /jsf-livraria/login.xhtml HTTP/1.1" 302 -
0:0:0:0:0:0:0:1 - - [25/Sep/2017:23:22:27 -0300] "GET /jsf-livraria/login.xhtml HTTP/1.1" 302 -
0:0:0:0:0:0:0:1 - - [25/Sep/2017:23:22:27 -0300] "GET /jsf-livraria/login.xhtml HTTP/1.1" 302 -
0:0:0:0:0:0:0:1 - - [25/Sep/2017:23:22:27 -0300] "GET /jsf-livraria/login.xhtml HTTP/1.1" 302 -
0:0:0:0:0:0:0:1 - - [25/Sep/2017:23:22:27 -0300] "GET /jsf-livraria/login.xhtml HTTP/1.1" 302 -
0:0:0:0:0:0:0:1 - - [25/Sep/2017:23:22:27 -0300] "GET /jsf-livraria/login.xhtml HTTP/1.1" 302 -
0:0:0:0:0:0:0:1 - - [25/Sep/2017:23:22:27 -0300] "GET /jsf-livraria/login.xhtml HTTP/1.1" 302 -
0:0:0:0:0:0:0:1 - - [25/Sep/2017:23:22:27 -0300] "GET /jsf-livraria/login.xhtml HTTP/1.1" 302 -
0:0:0:0:0:0:0:1 - - [25/Sep/2017:23:22:28 -0300] "GET /jsf-livraria/login.xhtml HTTP/1.1" 302 -
0:0:0:0:0:0:0:1 - - [25/Sep/2017:23:22:28 -0300] "GET /jsf-livraria/login.xhtml HTTP/1.1" 302 -
0:0:0:0:0:0:0:1 - - [25/Sep/2017:23:22:28 -0300] "GET /jsf-livraria/login.xhtml HTTP/1.1" 302 -
0:0:0:0:0:0:0:1 - - [25/Sep/2017:23:22:28 -0300] "GET /jsf-livraria/login.xhtml HTTP/1.1" 302 -
0:0:0:0:0:0:0:1 - - [25/Sep/2017:23:22:28 -0300] "GET /jsf-livraria/login.xhtml HTTP/1.1" 302 -
0:0:0:0:0:0:0:1 - - [25/Sep/2017:23:22:28 -0300] "GET /jsf-livraria/login.xhtml HTTP/1.1" 302 -
0:0:0:0:0:0:0:1 - - [25/Sep/2017:23:22:28 -0300] "GET /jsf-livraria/login.xhtml HTTP/1.1" 302 -
0:0:0:0:0:0:0:1 - - [25/Sep/2017:23:22:28 -0300] "GET /jsf-livraria/login.xhtml HTTP/1.1" 302 -
0:0:0:0:0:0:0:1 - - [25/Sep/2017:23:22:28 -0300] "GET /jsf-livraria/login.xhtml HTTP/1.1" 302 -
0:0:0:0:0:0:0:1 - - [25/Sep/2017:23:22:28 -0300] "GET /jsf-livraria/login.xhtml HTTP/1.1" 302 -
0:0:0:0:0:0:0:1 - - [25/Sep/2017:23:22:28 -0300] "GET /jsf-livraria/login.xhtml HTTP/1.1" 302 -
0:0:0:0:0:0:0:1 - - [25/Sep/2017:23:22:29 -0300] "GET /jsf-livraria/login.xhtml HTTP/1.1" 302 -
0:0:0:0:0:0:0:1 - - [25/Sep/2017:23:22:29 -0300] "GET /jsf-livraria/login.xhtml HTTP/1.1" 302 -
0:0:0:0:0:0:0:1 - - [25/Sep/2017:23:22:29 -0300] "GET /jsf-livraria/login.xhtml HTTP/1.1" 302 -
0:0:0:0:0:0:0:1 - - [25/Sep/2017:23:22:29 -0300] "GET /jsf-livraria/login.xhtml HTTP/1.1" 302 -
0:0:0:0:0:0:0:1 - - [25/Sep/2017:23:22:29 -0300] "GET /jsf-livraria/login.xhtml HTTP/1.1" 302 -
0:0:0:0:0:0:0:1 - - [25/Sep/2017:23:22:29 -0300] "GET /jsf-livraria/login.xhtml HTTP/1.1" 302 -
0:0:0:0:0:0:0:1 - - [25/Sep/2017:23:22:29 -0300] "GET /jsf-livraria/login.xhtml HTTP/1.1" 302 -
0:0:0:0:0:0:0:1 - - [25/Sep/2017:23:22:29 -0300] "GET /jsf-livraria/login.xhtml HTTP/1.1" 302 -
0:0:0:0:0:0:0:1 - - [25/Sep/2017:23:22:29 -0300] "GET /jsf-livraria/login.xhtml HTTP/1.1" 302 -
0:0:0:0:0:0:0:1 - - [25/Sep/2017:23:22:29 -0300] "GET /jsf-livraria/login.xhtml HTTP/1.1" 302 -
0:0:0:0:0:0:0:1 - - [25/Sep/2017:23:22:29 -0300] "GET /jsf-livraria/login.xhtml HTTP/1.1" 302 -
0:0:0:0:0:0:0:1 - - [25/Sep/2017:23:22:29 -0300] "GET /jsf-livraria/login.xhtml HTTP/1.1" 302 -
0:0:0:0:0:0:0:1 - - [25/Sep/2017:23:22:29 -0300] "GET /jsf-livraria/login.xhtml HTTP/1.1" 302 -
0:0:0:0:0:0:0:1 - - [25/Sep/2017:23:22:29 -0300] "GET /jsf-livraria/login.xhtml HTTP/1.1" 302 -
0:0:0:0:0:0:0:1 - - [25/Sep/2017:23:22:29 -0300] "GET /jsf-livraria/login.xhtml HTTP/1.1" 302 -
0:0:0:0:0:0:0:1 - - [25/Sep/2017:23:22:29 -0300] "GET /jsf-livraria/login.xhtml HTTP/1.1" 302 -
0:0:0:0:0:0:0:1 - - [25/Sep/2017:23:22:29 -0300] "GET /jsf-livraria/login.xhtml HTTP/1.1" 302 -
0:0:0:0:0:0:0:1 - - [25/Sep/2017:23:22:29 -0300] "GET /jsf-livraria/login.xhtml HTTP/1.1" 302 -
0:0:0:0:0:0:0:1 - - [25/Sep/2017:23:22:29 -0300] "GET /jsf-livraria/login.xhtml HTTP/1.1" 302 -
0:0:0:0:0:0:0:1 - - [25/Sep/2017:23:22:29 -0300] "GET /jsf-livraria/login.xhtml HTTP/1.1" 302 -
0:0:0:0:0:0:0:1 - - [25/Sep/2017:23:22:29 -0300] "GET /jsf-livraria/login.xhtml HTTP/1.1" 302 -
127.0.0.1 - - [25/Sep/2017:23:26:54 -0300] "GET / HTTP/1.1" 404 1081
0:0:0:0:0:0:0:1 - - [25/Sep/2017:23:27:32 -0300] "GET /jsf-livraria/login.xhtml HTTP/1.1" 200 1208
127.0.0.1 - - [25/Sep/2017:23:28:09 -0300] "GET / HTTP/1.1" 404 1081
0:0:0:0:0:0:0:1 - - [25/Sep/2017:23:28:22 -0300] "GET /jsf-livraria/login.xhtml HTTP/1.1" 200 1209
0:0:0:0:0:0:0:1 - - [25/Sep/2017:23:28:31 -0300] "GET /jsf-livraria/livro.xhtml HTTP/1.1" 302 -
0:0:0:0:0:0:0:1 - - [25/Sep/2017:23:28:31 -0300] "GET /jsf-livraria/login.xhtml HTTP/1.1" 200 1207
0:0:0:0:0:0:0:1 - - [25/Sep/2017:23:28:48 -0300] "POST /jsf-livraria/login.xhtml HTTP/1.1" 302 -
0:0:0:0:0:0:0:1 - - [25/Sep/2017:23:30:41 -0300] "GET /jsf-livraria/livro.xhtml HTTP/1.1" 200 5577
127.0.0.1 - - [25/Sep/2017:23:35:15 -0300] "GET / HTTP/1.1" 404 1081
0:0:0:0:0:0:0:1 - - [25/Sep/2017:23:35:27 -0300] "GET /jsf-livraria/login.xhtml HTTP/1.1" 200 1798
0:0:0:0:0:0:0:1 - - [25/Sep/2017:23:35:44 -0300] "POST /jsf-livraria/login.xhtml HTTP/1.1" 302 -
0:0:0:0:0:0:0:1 - - [25/Sep/2017:23:35:45 -0300] "GET /jsf-livraria/livro.xhtml HTTP/1.1" 200 6055
0:0:0:0:0:0:0:1 - - [25/Sep/2017:23:35:47 -0300] "POST /jsf-livraria/livro.xhtml HTTP/1.1" 302 -
0:0:0:0:0:0:0:1 - - [25/Sep/2017:23:35:47 -0300] "GET /jsf-livraria/login.xhtml HTTP/1.1" 200 1798
0:0:0:0:0:0:0:1 - - [25/Sep/2017:23:35:52 -0300] "GET /jsf-livraria/livro.xhtml HTTP/1.1" 302 -
0:0:0:0:0:0:0:1 - - [25/Sep/2017:23:35:52 -0300] "GET /jsf-livraria/login.xhtml HTTP/1.1" 200 1794
0:0:0:0:0:0:0:1 - - [25/Sep/2017:23:35:54 -0300] "POST /jsf-livraria/login.xhtml HTTP/1.1" 302 -
0:0:0:0:0:0:0:1 - - [25/Sep/2017:23:35:54 -0300] "GET /jsf-livraria/login.xhtml HTTP/1.1" 200 1796
0:0:0:0:0:0:0:1 - - [25/Sep/2017:23:37:10 -0300] "GET /jsf-livraria/login.xhtml HTTP/1.1" 200 1209
0:0:0:0:0:0:0:1 - - [25/Sep/2017:23:37:11 -0300] "POST /jsf-livraria/login.xhtml HTTP/1.1" 302 -
0:0:0:0:0:0:0:1 - - [25/Sep/2017:23:37:12 -0300] "GET /jsf-livraria/livro.xhtml HTTP/1.1" 200 6049
0:0:0:0:0:0:0:1 - - [25/Sep/2017:23:37:13 -0300] "POST /jsf-livraria/livro.xhtml HTTP/1.1" 302 -
0:0:0:0:0:0:0:1 - - [25/Sep/2017:23:37:13 -0300] "GET /jsf-livraria/login.xhtml HTTP/1.1" 200 1211
127.0.0.1 - - [25/Sep/2017:23:41:52 -0300] "GET / HTTP/1.1" 404 1081
0:0:0:0:0:0:0:1 - - [25/Sep/2017:23:42:00 -0300] "GET /jsf-livraria/login.xhtml HTTP/1.1" 200 1211
0:0:0:0:0:0:0:1 - - [25/Sep/2017:23:42:09 -0300] "POST /jsf-livraria/login.xhtml HTTP/1.1" 302 -
0:0:0:0:0:0:0:1 - - [25/Sep/2017:23:42:09 -0300] "GET /jsf-livraria/login.xhtml HTTP/1.1" 200 1210
127.0.0.1 - - [25/Sep/2017:23:45:01 -0300] "GET / HTTP/1.1" 404 1081
0:0:0:0:0:0:0:1 - - [25/Sep/2017:23:45:02 -0300] "GET /jsf-livraria/login.xhtml HTTP/1.1" 200 1210
0:0:0:0:0:0:0:1 - - [25/Sep/2017:23:45:14 -0300] "POST /jsf-livraria/login.xhtml HTTP/1.1" 302 -
0:0:0:0:0:0:0:1 - - [25/Sep/2017:23:45:14 -0300] "GET /jsf-livraria/login.xhtml HTTP/1.1" 200 1245
