127.0.0.1 - - [15/Oct/2017:19:36:07 -0200] "GET / HTTP/1.1" 404 1081
0:0:0:0:0:0:0:1 - - [15/Oct/2017:19:36:54 -0200] "GET /jsf-livraria/livro.xhtml HTTP/1.1" 302 -
0:0:0:0:0:0:0:1 - - [15/Oct/2017:19:36:56 -0200] "GET /jsf-livraria/login.xhtml HTTP/1.1" 200 3941
0:0:0:0:0:0:0:1 - - [15/Oct/2017:19:36:56 -0200] "GET /jsf-livraria/javax.faces.resource/core.js.xhtml;jsessionid=7A6BD0C1CF0B625EE7D95CEDFC91B8E0?ln=primefaces&v=6.0 HTTP/1.1" 200 30554
0:0:0:0:0:0:0:1 - - [15/Oct/2017:19:36:56 -0200] "GET /jsf-livraria/javax.faces.resource/jquery/jquery.js.xhtml;jsessionid=7A6BD0C1CF0B625EE7D95CEDFC91B8E0?ln=primefaces&v=6.0 HTTP/1.1" 200 107785
0:0:0:0:0:0:0:1 - - [15/Oct/2017:19:36:56 -0200] "GET /jsf-livraria/javax.faces.resource/jquery/jquery-plugins.js.xhtml;jsessionid=7A6BD0C1CF0B625EE7D95CEDFC91B8E0?ln=primefaces&v=6.0 HTTP/1.1" 200 245797
0:0:0:0:0:0:0:1 - - [15/Oct/2017:19:36:56 -0200] "GET /jsf-livraria/javax.faces.resource/components.js.xhtml;jsessionid=7A6BD0C1CF0B625EE7D95CEDFC91B8E0?ln=primefaces&v=6.0 HTTP/1.1" 200 357791
0:0:0:0:0:0:0:1 - - [15/Oct/2017:19:36:56 -0200] "GET /jsf-livraria/javax.faces.resource/logo.png.xhtml;jsessionid=7A6BD0C1CF0B625EE7D95CEDFC91B8E0?ln=img HTTP/1.1" 200 12682
0:0:0:0:0:0:0:1 - - [15/Oct/2017:19:36:56 -0200] "GET /jsf-livraria/javax.faces.resource/components.css.xhtml;jsessionid=7A6BD0C1CF0B625EE7D95CEDFC91B8E0?ln=primefaces&v=6.0 HTTP/1.1" 200 75469
0:0:0:0:0:0:0:1 - - [15/Oct/2017:19:36:57 -0200] "GET /favicon.ico HTTP/1.1" 404 1092
0:0:0:0:0:0:0:1 - - [15/Oct/2017:19:37:28 -0200] "POST /jsf-livraria/login.xhtml;jsessionid=7A6BD0C1CF0B625EE7D95CEDFC91B8E0 HTTP/1.1" 200 151
0:0:0:0:0:0:0:1 - - [15/Oct/2017:19:37:28 -0200] "GET /jsf-livraria/login.xhtml HTTP/1.1" 200 3633
0:0:0:0:0:0:0:1 - - [15/Oct/2017:19:37:48 -0200] "POST /jsf-livraria/login.xhtml HTTP/1.1" 200 151
0:0:0:0:0:0:0:1 - - [15/Oct/2017:19:37:49 -0200] "GET /jsf-livraria/login.xhtml HTTP/1.1" 200 3634
0:0:0:0:0:0:0:1 - - [15/Oct/2017:19:37:51 -0200] "POST /jsf-livraria/login.xhtml HTTP/1.1" 200 151
0:0:0:0:0:0:0:1 - - [15/Oct/2017:19:37:51 -0200] "GET /jsf-livraria/login.xhtml HTTP/1.1" 200 3633
0:0:0:0:0:0:0:1 - - [15/Oct/2017:19:39:33 -0200] "POST /jsf-livraria/login.xhtml HTTP/1.1" 200 2588
0:0:0:0:0:0:0:1 - - [15/Oct/2017:19:39:33 -0200] "POST /jsf-livraria/login.xhtml HTTP/1.1" 200 2874
0:0:0:0:0:0:0:1 - - [15/Oct/2017:19:39:33 -0200] "GET /jsf-livraria/javax.faces.resource/messages/messages.png.xhtml?ln=primefaces&v=6.0 HTTP/1.1" 200 27245
0:0:0:0:0:0:0:1 - - [15/Oct/2017:19:40:51 -0200] "POST /jsf-livraria/login.xhtml HTTP/1.1" 200 2874
0:0:0:0:0:0:0:1 - - [15/Oct/2017:19:41:02 -0200] "POST /jsf-livraria/login.xhtml HTTP/1.1" 200 2588
0:0:0:0:0:0:0:1 - - [15/Oct/2017:19:43:13 -0200] "POST /jsf-livraria/login.xhtml HTTP/1.1" 200 151
0:0:0:0:0:0:0:1 - - [15/Oct/2017:19:43:14 -0200] "GET /jsf-livraria/livro.xhtml HTTP/1.1" 200 6270
0:0:0:0:0:0:0:1 - - [15/Oct/2017:19:43:14 -0200] "GET /jsf-livraria/javax.faces.resource/jsf.js.xhtml?ln=javax.faces HTTP/1.1" 304 -
0:0:0:0:0:0:0:1 - - [15/Oct/2017:19:43:18 -0200] "POST /jsf-livraria/livro.xhtml HTTP/1.1" 302 -
0:0:0:0:0:0:0:1 - - [15/Oct/2017:19:43:19 -0200] "GET /jsf-livraria/login.xhtml HTTP/1.1" 200 3634
0:0:0:0:0:0:0:1 - - [15/Oct/2017:19:45:05 -0200] "POST /jsf-livraria/login.xhtml HTTP/1.1" 200 2589
0:0:0:0:0:0:0:1 - - [15/Oct/2017:19:45:26 -0200] "POST /jsf-livraria/login.xhtml HTTP/1.1" 200 151
0:0:0:0:0:0:0:1 - - [15/Oct/2017:19:45:27 -0200] "GET /jsf-livraria/livro.xhtml HTTP/1.1" 200 6276
0:0:0:0:0:0:0:1 - - [15/Oct/2017:19:45:27 -0200] "GET /jsf-livraria/javax.faces.resource/jsf.js.xhtml?ln=javax.faces HTTP/1.1" 304 -
0:0:0:0:0:0:0:1 - - [15/Oct/2017:19:45:31 -0200] "POST /jsf-livraria/livro.xhtml HTTP/1.1" 302 -
0:0:0:0:0:0:0:1 - - [15/Oct/2017:19:45:31 -0200] "GET /jsf-livraria/login.xhtml HTTP/1.1" 200 3634
0:0:0:0:0:0:0:1 - - [15/Oct/2017:19:45:51 -0200] "POST /jsf-livraria/login.xhtml HTTP/1.1" 200 2591
0:0:0:0:0:0:0:1 - - [15/Oct/2017:19:46:37 -0200] "POST /jsf-livraria/login.xhtml HTTP/1.1" 200 3065
0:0:0:0:0:0:0:1 - - [15/Oct/2017:19:48:30 -0200] "POST /jsf-livraria/login.xhtml HTTP/1.1" 200 2589
0:0:0:0:0:0:0:1 - - [15/Oct/2017:19:48:35 -0200] "POST /jsf-livraria/login.xhtml HTTP/1.1" 200 151
0:0:0:0:0:0:0:1 - - [15/Oct/2017:19:48:35 -0200] "GET /jsf-livraria/livro.xhtml HTTP/1.1" 200 6270
0:0:0:0:0:0:0:1 - - [15/Oct/2017:19:48:35 -0200] "GET /jsf-livraria/javax.faces.resource/jsf.js.xhtml?ln=javax.faces HTTP/1.1" 304 -
0:0:0:0:0:0:0:1 - - [15/Oct/2017:19:48:36 -0200] "POST /jsf-livraria/livro.xhtml HTTP/1.1" 302 -
0:0:0:0:0:0:0:1 - - [15/Oct/2017:19:48:36 -0200] "GET /jsf-livraria/login.xhtml HTTP/1.1" 200 3684
0:0:0:0:0:0:0:1 - - [15/Oct/2017:19:48:38 -0200] "POST /jsf-livraria/login.xhtml HTTP/1.1" 200 2594
0:0:0:0:0:0:0:1 - - [15/Oct/2017:19:53:29 -0200] "POST /jsf-livraria/login.xhtml HTTP/1.1" 200 2880
0:0:0:0:0:0:0:1 - - [15/Oct/2017:19:53:34 -0200] "POST /jsf-livraria/login.xhtml HTTP/1.1" 200 151
0:0:0:0:0:0:0:1 - - [15/Oct/2017:19:53:34 -0200] "GET /jsf-livraria/livro.xhtml HTTP/1.1" 200 6270
0:0:0:0:0:0:0:1 - - [15/Oct/2017:19:53:35 -0200] "GET /jsf-livraria/javax.faces.resource/jsf.js.xhtml?ln=javax.faces HTTP/1.1" 304 -
0:0:0:0:0:0:0:1 - - [15/Oct/2017:19:53:37 -0200] "POST /jsf-livraria/livro.xhtml HTTP/1.1" 302 -
0:0:0:0:0:0:0:1 - - [15/Oct/2017:19:53:45 -0200] "GET /jsf-livraria/autor.xhtml HTTP/1.1" 200 6757
0:0:0:0:0:0:0:1 - - [15/Oct/2017:19:53:45 -0200] "GET /jsf-livraria/javax.faces.resource/jsf.js.xhtml?ln=javax.faces HTTP/1.1" 304 -
0:0:0:0:0:0:0:1 - - [15/Oct/2017:19:55:01 -0200] "POST /jsf-livraria/autor.xhtml HTTP/1.1" 302 -
0:0:0:0:0:0:0:1 - - [15/Oct/2017:19:55:01 -0200] "GET /jsf-livraria/login.xhtml HTTP/1.1" 200 3683
0:0:0:0:0:0:0:1 - - [15/Oct/2017:19:55:03 -0200] "POST /jsf-livraria/login.xhtml HTTP/1.1" 200 151
0:0:0:0:0:0:0:1 - - [15/Oct/2017:19:55:03 -0200] "GET /jsf-livraria/livro.xhtml HTTP/1.1" 200 6276
0:0:0:0:0:0:0:1 - - [15/Oct/2017:19:55:03 -0200] "GET /jsf-livraria/javax.faces.resource/jsf.js.xhtml?ln=javax.faces HTTP/1.1" 304 -
0:0:0:0:0:0:0:1 - - [15/Oct/2017:19:55:05 -0200] "POST /jsf-livraria/livro.xhtml HTTP/1.1" 302 -
0:0:0:0:0:0:0:1 - - [15/Oct/2017:19:55:05 -0200] "GET /jsf-livraria/autor.xhtml HTTP/1.1" 200 7169
0:0:0:0:0:0:0:1 - - [15/Oct/2017:19:55:05 -0200] "GET /jsf-livraria/javax.faces.resource/jsf.js.xhtml?ln=javax.faces HTTP/1.1" 304 -
0:0:0:0:0:0:0:1 - - [15/Oct/2017:19:55:18 -0200] "POST /jsf-livraria/autor.xhtml HTTP/1.1" 200 350
0:0:0:0:0:0:0:1 - - [15/Oct/2017:19:55:27 -0200] "POST /jsf-livraria/autor.xhtml HTTP/1.1" 200 151
0:0:0:0:0:0:0:1 - - [15/Oct/2017:19:55:28 -0200] "GET /jsf-livraria/livro.xhtml HTTP/1.1" 200 6306
0:0:0:0:0:0:0:1 - - [15/Oct/2017:19:55:28 -0200] "GET /jsf-livraria/javax.faces.resource/jsf.js.xhtml?ln=javax.faces HTTP/1.1" 304 -
0:0:0:0:0:0:0:1 - - [15/Oct/2017:19:55:33 -0200] "POST /jsf-livraria/livro.xhtml HTTP/1.1" 302 -
0:0:0:0:0:0:0:1 - - [15/Oct/2017:19:55:33 -0200] "GET /jsf-livraria/autor.xhtml HTTP/1.1" 200 7624
0:0:0:0:0:0:0:1 - - [15/Oct/2017:19:55:33 -0200] "GET /jsf-livraria/javax.faces.resource/jsf.js.xhtml?ln=javax.faces HTTP/1.1" 304 -
0:0:0:0:0:0:0:1 - - [15/Oct/2017:20:08:10 -0200] "POST /jsf-livraria/autor.xhtml HTTP/1.1" 302 -
0:0:0:0:0:0:0:1 - - [15/Oct/2017:20:08:11 -0200] "GET /jsf-livraria/login.xhtml HTTP/1.1" 200 3743
0:0:0:0:0:0:0:1 - - [15/Oct/2017:20:08:12 -0200] "POST /jsf-livraria/login.xhtml HTTP/1.1" 200 151
0:0:0:0:0:0:0:1 - - [15/Oct/2017:20:08:12 -0200] "GET /jsf-livraria/livro.xhtml HTTP/1.1" 200 6312
0:0:0:0:0:0:0:1 - - [15/Oct/2017:20:08:13 -0200] "GET /jsf-livraria/javax.faces.resource/jsf.js.xhtml?ln=javax.faces HTTP/1.1" 304 -
0:0:0:0:0:0:0:1 - - [15/Oct/2017:20:08:15 -0200] "POST /jsf-livraria/livro.xhtml HTTP/1.1" 302 -
0:0:0:0:0:0:0:1 - - [15/Oct/2017:20:08:15 -0200] "GET /jsf-livraria/autor.xhtml HTTP/1.1" 200 7819
0:0:0:0:0:0:0:1 - - [15/Oct/2017:20:08:15 -0200] "GET /jsf-livraria/javax.faces.resource/jsf.js.xhtml?ln=javax.faces HTTP/1.1" 304 -
0:0:0:0:0:0:0:1 - - [15/Oct/2017:20:08:19 -0200] "POST /jsf-livraria/autor.xhtml HTTP/1.1" 200 603
0:0:0:0:0:0:0:1 - - [15/Oct/2017:20:08:19 -0200] "POST /jsf-livraria/autor.xhtml HTTP/1.1" 200 6536
0:0:0:0:0:0:0:1 - - [15/Oct/2017:20:08:23 -0200] "POST /jsf-livraria/autor.xhtml HTTP/1.1" 200 570
0:0:0:0:0:0:0:1 - - [15/Oct/2017:20:08:23 -0200] "POST /jsf-livraria/autor.xhtml HTTP/1.1" 200 6505
0:0:0:0:0:0:0:1 - - [15/Oct/2017:20:08:26 -0200] "POST /jsf-livraria/autor.xhtml HTTP/1.1" 200 348
0:0:0:0:0:0:0:1 - - [15/Oct/2017:20:08:26 -0200] "POST /jsf-livraria/autor.xhtml HTTP/1.1" 200 6302
0:0:0:0:0:0:0:1 - - [15/Oct/2017:20:08:37 -0200] "POST /jsf-livraria/autor.xhtml HTTP/1.1" 200 570
0:0:0:0:0:0:0:1 - - [15/Oct/2017:20:08:39 -0200] "POST /jsf-livraria/autor.xhtml HTTP/1.1" 200 348
0:0:0:0:0:0:0:1 - - [15/Oct/2017:20:41:45 -0200] "POST /jsf-livraria/autor.xhtml HTTP/1.1" 200 151
0:0:0:0:0:0:0:1 - - [15/Oct/2017:20:41:45 -0200] "POST /jsf-livraria/autor.xhtml HTTP/1.1" 500 2106
0:0:0:0:0:0:0:1 - - [15/Oct/2017:20:41:45 -0200] "GET /jsf-livraria/login.xhtml HTTP/1.1" 200 3744
0:0:0:0:0:0:0:1 - - [15/Oct/2017:20:41:47 -0200] "POST /jsf-livraria/login.xhtml HTTP/1.1" 200 151
0:0:0:0:0:0:0:1 - - [15/Oct/2017:20:41:47 -0200] "GET /jsf-livraria/livro.xhtml HTTP/1.1" 200 6318
0:0:0:0:0:0:0:1 - - [15/Oct/2017:20:41:47 -0200] "GET /jsf-livraria/javax.faces.resource/jsf.js.xhtml?ln=javax.faces HTTP/1.1" 304 -
0:0:0:0:0:0:0:1 - - [15/Oct/2017:20:41:49 -0200] "POST /jsf-livraria/livro.xhtml HTTP/1.1" 302 -
0:0:0:0:0:0:0:1 - - [15/Oct/2017:20:41:49 -0200] "GET /jsf-livraria/autor.xhtml HTTP/1.1" 500 2840
0:0:0:0:0:0:0:1 - - [15/Oct/2017:20:43:33 -0200] "GET /jsf-livraria/livro.xhtml HTTP/1.1" 200 6312
0:0:0:0:0:0:0:1 - - [15/Oct/2017:20:43:34 -0200] "GET /jsf-livraria/livro.xhtml HTTP/1.1" 200 6318
0:0:0:0:0:0:0:1 - - [15/Oct/2017:20:43:34 -0200] "GET /jsf-livraria/javax.faces.resource/jsf.js.xhtml?ln=javax.faces HTTP/1.1" 304 -
0:0:0:0:0:0:0:1 - - [15/Oct/2017:20:43:37 -0200] "POST /jsf-livraria/livro.xhtml HTTP/1.1" 302 -
0:0:0:0:0:0:0:1 - - [15/Oct/2017:20:43:37 -0200] "GET /jsf-livraria/autor.xhtml HTTP/1.1" 500 2840
0:0:0:0:0:0:0:1 - - [15/Oct/2017:20:43:52 -0200] "GET /jsf-livraria/autor.xhtml HTTP/1.1" 500 2840
0:0:0:0:0:0:0:1 - - [15/Oct/2017:20:43:56 -0200] "GET /jsf-livraria/autor.xhtml HTTP/1.1" 500 4806
0:0:0:0:0:0:0:1 - - [15/Oct/2017:20:44:09 -0200] "GET /jsf-livraria/autor.xhtml HTTP/1.1" 200 8758
0:0:0:0:0:0:0:1 - - [15/Oct/2017:20:44:09 -0200] "GET /jsf-livraria/javax.faces.resource/jsf.js.xhtml?ln=javax.faces HTTP/1.1" 304 -
0:0:0:0:0:0:0:1 - - [15/Oct/2017:21:02:39 -0200] "GET /jsf-livraria/autor.xhtml HTTP/1.1" 200 11959
0:0:0:0:0:0:0:1 - - [15/Oct/2017:21:02:39 -0200] "GET /jsf-livraria/javax.faces.resource/jsf.js.xhtml?ln=javax.faces HTTP/1.1" 304 -
0:0:0:0:0:0:0:1 - - [15/Oct/2017:21:02:39 -0200] "GET /jsf-livraria/javax.faces.resource/images/ui-icons_616161_256x240.png.xhtml?ln=primefaces-aristo HTTP/1.1" 200 4369
0:0:0:0:0:0:0:1 - - [15/Oct/2017:21:04:43 -0200] "GET /jsf-livraria/autor.xhtml HTTP/1.1" 500 4018
0:0:0:0:0:0:0:1 - - [15/Oct/2017:21:04:59 -0200] "GET /jsf-livraria/autor.xhtml HTTP/1.1" 500 4015
0:0:0:0:0:0:0:1 - - [15/Oct/2017:21:06:55 -0200] "GET /jsf-livraria/autor.xhtml HTTP/1.1" 500 4018
0:0:0:0:0:0:0:1 - - [15/Oct/2017:21:08:59 -0200] "GET /jsf-livraria/autor.xhtml HTTP/1.1" 500 4018
0:0:0:0:0:0:0:1 - - [15/Oct/2017:21:09:39 -0200] "GET /jsf-livraria/autor.xhtml HTTP/1.1" 500 4015
0:0:0:0:0:0:0:1 - - [15/Oct/2017:21:09:40 -0200] "GET /jsf-livraria/autor.xhtml HTTP/1.1" 500 4015
0:0:0:0:0:0:0:1 - - [15/Oct/2017:21:09:41 -0200] "GET /jsf-livraria/autor.xhtml HTTP/1.1" 500 4015
0:0:0:0:0:0:0:1 - - [15/Oct/2017:21:09:59 -0200] "GET /jsf-livraria/autor.xhtml HTTP/1.1" 500 4024
0:0:0:0:0:0:0:1 - - [15/Oct/2017:21:10:01 -0200] "GET /jsf-livraria/autor.xhtml HTTP/1.1" 500 4027
0:0:0:0:0:0:0:1 - - [15/Oct/2017:21:10:26 -0200] "GET /jsf-livraria/autor.xhtml HTTP/1.1" 500 4027
0:0:0:0:0:0:0:1 - - [15/Oct/2017:21:10:27 -0200] "GET /jsf-livraria/autor.xhtml HTTP/1.1" 500 4027
0:0:0:0:0:0:0:1 - - [15/Oct/2017:21:10:28 -0200] "GET /jsf-livraria/autor.xhtml HTTP/1.1" 500 4027
0:0:0:0:0:0:0:1 - - [15/Oct/2017:21:10:29 -0200] "GET /jsf-livraria/autor.xhtml HTTP/1.1" 500 4027
0:0:0:0:0:0:0:1 - - [15/Oct/2017:21:10:29 -0200] "GET /jsf-livraria/autor.xhtml HTTP/1.1" 500 4027
0:0:0:0:0:0:0:1 - - [15/Oct/2017:21:10:30 -0200] "GET /jsf-livraria/autor.xhtml HTTP/1.1" 500 4027
0:0:0:0:0:0:0:1 - - [15/Oct/2017:21:10:31 -0200] "GET /jsf-livraria/autor.xhtml HTTP/1.1" 500 4027
0:0:0:0:0:0:0:1 - - [15/Oct/2017:21:10:31 -0200] "GET /jsf-livraria/autor.xhtml HTTP/1.1" 500 4027
0:0:0:0:0:0:0:1 - - [15/Oct/2017:21:10:32 -0200] "GET /jsf-livraria/autor.xhtml HTTP/1.1" 500 4027
0:0:0:0:0:0:0:1 - - [15/Oct/2017:21:10:33 -0200] "GET /jsf-livraria/autor.xhtml HTTP/1.1" 500 4027
0:0:0:0:0:0:0:1 - - [15/Oct/2017:21:10:35 -0200] "GET /jsf-livraria/autor.xhtml HTTP/1.1" 500 4027
0:0:0:0:0:0:0:1 - - [15/Oct/2017:21:10:35 -0200] "GET /jsf-livraria/autor.xhtml HTTP/1.1" 500 4027
0:0:0:0:0:0:0:1 - - [15/Oct/2017:21:10:35 -0200] "GET /jsf-livraria/autor.xhtml HTTP/1.1" 500 4027
0:0:0:0:0:0:0:1 - - [15/Oct/2017:21:10:36 -0200] "GET /jsf-livraria/autor.xhtml HTTP/1.1" 500 4027
0:0:0:0:0:0:0:1 - - [15/Oct/2017:21:10:36 -0200] "GET /jsf-livraria/autor.xhtml HTTP/1.1" 500 4027
0:0:0:0:0:0:0:1 - - [15/Oct/2017:21:10:37 -0200] "GET /jsf-livraria/autor.xhtml HTTP/1.1" 500 4027
0:0:0:0:0:0:0:1 - - [15/Oct/2017:21:10:37 -0200] "GET /jsf-livraria/autor.xhtml HTTP/1.1" 500 4027
0:0:0:0:0:0:0:1 - - [15/Oct/2017:21:10:37 -0200] "GET /jsf-livraria/autor.xhtml HTTP/1.1" 500 4027
0:0:0:0:0:0:0:1 - - [15/Oct/2017:21:10:38 -0200] "GET /jsf-livraria/autor.xhtml HTTP/1.1" 500 4027
0:0:0:0:0:0:0:1 - - [15/Oct/2017:21:10:38 -0200] "GET /jsf-livraria/autor.xhtml HTTP/1.1" 500 4024
0:0:0:0:0:0:0:1 - - [15/Oct/2017:21:10:38 -0200] "GET /jsf-livraria/autor.xhtml HTTP/1.1" 500 4027
0:0:0:0:0:0:0:1 - - [15/Oct/2017:21:10:38 -0200] "GET /jsf-livraria/autor.xhtml HTTP/1.1" 500 4027
0:0:0:0:0:0:0:1 - - [15/Oct/2017:21:10:39 -0200] "GET /jsf-livraria/autor.xhtml HTTP/1.1" 500 4027
0:0:0:0:0:0:0:1 - - [15/Oct/2017:21:10:39 -0200] "GET /jsf-livraria/autor.xhtml HTTP/1.1" 500 4027
0:0:0:0:0:0:0:1 - - [15/Oct/2017:21:10:39 -0200] "GET /jsf-livraria/autor.xhtml HTTP/1.1" 500 4024
0:0:0:0:0:0:0:1 - - [15/Oct/2017:21:10:39 -0200] "GET /jsf-livraria/autor.xhtml HTTP/1.1" 500 4027
0:0:0:0:0:0:0:1 - - [15/Oct/2017:21:10:39 -0200] "GET /jsf-livraria/autor.xhtml HTTP/1.1" 500 4027
0:0:0:0:0:0:0:1 - - [15/Oct/2017:21:10:39 -0200] "GET /jsf-livraria/autor.xhtml HTTP/1.1" 500 4027
0:0:0:0:0:0:0:1 - - [15/Oct/2017:21:10:40 -0200] "GET /jsf-livraria/autor.xhtml HTTP/1.1" 500 4027
0:0:0:0:0:0:0:1 - - [15/Oct/2017:21:10:40 -0200] "GET /jsf-livraria/autor.xhtml HTTP/1.1" 500 4027
0:0:0:0:0:0:0:1 - - [15/Oct/2017:21:10:40 -0200] "GET /jsf-livraria/autor.xhtml HTTP/1.1" 500 4027
0:0:0:0:0:0:0:1 - - [15/Oct/2017:21:10:40 -0200] "GET /jsf-livraria/autor.xhtml HTTP/1.1" 500 4027
0:0:0:0:0:0:0:1 - - [15/Oct/2017:21:10:41 -0200] "GET /jsf-livraria/autor.xhtml HTTP/1.1" 500 4027
0:0:0:0:0:0:0:1 - - [15/Oct/2017:21:10:41 -0200] "GET /jsf-livraria/autor.xhtml HTTP/1.1" 500 4027
0:0:0:0:0:0:0:1 - - [15/Oct/2017:21:10:41 -0200] "GET /jsf-livraria/autor.xhtml HTTP/1.1" 500 4027
0:0:0:0:0:0:0:1 - - [15/Oct/2017:21:10:41 -0200] "GET /jsf-livraria/autor.xhtml HTTP/1.1" 500 4027
0:0:0:0:0:0:0:1 - - [15/Oct/2017:21:10:41 -0200] "GET /jsf-livraria/autor.xhtml HTTP/1.1" 500 4027
0:0:0:0:0:0:0:1 - - [15/Oct/2017:21:10:42 -0200] "GET /jsf-livraria/autor.xhtml HTTP/1.1" 500 4024
0:0:0:0:0:0:0:1 - - [15/Oct/2017:21:10:42 -0200] "GET /jsf-livraria/autor.xhtml HTTP/1.1" 500 4024
0:0:0:0:0:0:0:1 - - [15/Oct/2017:21:10:42 -0200] "GET /jsf-livraria/autor.xhtml HTTP/1.1" 500 4027
0:0:0:0:0:0:0:1 - - [15/Oct/2017:21:10:42 -0200] "GET /jsf-livraria/autor.xhtml HTTP/1.1" 500 4027
0:0:0:0:0:0:0:1 - - [15/Oct/2017:21:10:42 -0200] "GET /jsf-livraria/autor.xhtml HTTP/1.1" 500 4027
0:0:0:0:0:0:0:1 - - [15/Oct/2017:21:10:43 -0200] "GET /jsf-livraria/autor.xhtml HTTP/1.1" 500 4027
0:0:0:0:0:0:0:1 - - [15/Oct/2017:21:10:43 -0200] "GET /jsf-livraria/autor.xhtml HTTP/1.1" 500 4027
0:0:0:0:0:0:0:1 - - [15/Oct/2017:21:12:28 -0200] "GET /jsf-livraria/autor.xhtml HTTP/1.1" 500 4072
0:0:0:0:0:0:0:1 - - [15/Oct/2017:21:26:01 -0200] "GET /jsf-livraria/autor.xhtml HTTP/1.1" 500 3851
0:0:0:0:0:0:0:1 - - [15/Oct/2017:21:27:02 -0200] "GET /jsf-livraria/autor.xhtml HTTP/1.1" 500 3851
0:0:0:0:0:0:0:1 - - [15/Oct/2017:21:27:20 -0200] "GET /jsf-livraria/autor.xhtml HTTP/1.1" 200 9085
0:0:0:0:0:0:0:1 - - [15/Oct/2017:21:27:20 -0200] "GET /jsf-livraria/javax.faces.resource/jsf.js.xhtml?ln=javax.faces HTTP/1.1" 304 -
0:0:0:0:0:0:0:1 - - [15/Oct/2017:21:27:50 -0200] "GET /jsf-livraria/autor.xhtml HTTP/1.1" 200 9115
0:0:0:0:0:0:0:1 - - [15/Oct/2017:21:27:50 -0200] "GET /jsf-livraria/javax.faces.resource/jsf.js.xhtml?ln=javax.faces HTTP/1.1" 304 -
0:0:0:0:0:0:0:1 - - [15/Oct/2017:21:27:54 -0200] "POST /jsf-livraria/autor.xhtml HTTP/1.1" 200 261
0:0:0:0:0:0:0:1 - - [15/Oct/2017:21:27:55 -0200] "POST /jsf-livraria/autor.xhtml HTTP/1.1" 200 261
0:0:0:0:0:0:0:1 - - [15/Oct/2017:21:27:56 -0200] "POST /jsf-livraria/autor.xhtml HTTP/1.1" 200 261
0:0:0:0:0:0:0:1 - - [15/Oct/2017:21:27:58 -0200] "POST /jsf-livraria/autor.xhtml HTTP/1.1" 200 264
0:0:0:0:0:0:0:1 - - [15/Oct/2017:21:28:03 -0200] "POST /jsf-livraria/autor.xhtml HTTP/1.1" 200 264
0:0:0:0:0:0:0:1 - - [15/Oct/2017:21:28:04 -0200] "POST /jsf-livraria/autor.xhtml HTTP/1.1" 200 264
0:0:0:0:0:0:0:1 - - [15/Oct/2017:21:28:21 -0200] "POST /jsf-livraria/autor.xhtml HTTP/1.1" 200 261
0:0:0:0:0:0:0:1 - - [15/Oct/2017:21:28:53 -0200] "POST /jsf-livraria/autor.xhtml HTTP/1.1" 200 4096
0:0:0:0:0:0:0:1 - - [15/Oct/2017:21:28:56 -0200] "POST /jsf-livraria/autor.xhtml HTTP/1.1" 200 264
0:0:0:0:0:0:0:1 - - [15/Oct/2017:21:28:58 -0200] "POST /jsf-livraria/autor.xhtml HTTP/1.1" 200 264
0:0:0:0:0:0:0:1 - - [15/Oct/2017:21:29:03 -0200] "POST /jsf-livraria/autor.xhtml HTTP/1.1" 200 264
127.0.0.1 - - [15/Oct/2017:21:32:31 -0200] "GET / HTTP/1.1" 404 1081
0:0:0:0:0:0:0:1 - - [15/Oct/2017:21:32:47 -0200] "GET /jsf-livraria/autor.xhtml HTTP/1.1" 200 8334
0:0:0:0:0:0:0:1 - - [15/Oct/2017:21:32:47 -0200] "GET /jsf-livraria/javax.faces.resource/jsf.js.xhtml?ln=javax.faces HTTP/1.1" 304 -
0:0:0:0:0:0:0:1 - - [15/Oct/2017:21:33:05 -0200] "POST /jsf-livraria/autor.xhtml HTTP/1.1" 200 220
0:0:0:0:0:0:0:1 - - [15/Oct/2017:21:33:13 -0200] "POST /jsf-livraria/autor.xhtml HTTP/1.1" 200 220
0:0:0:0:0:0:0:1 - - [15/Oct/2017:21:33:14 -0200] "POST /jsf-livraria/autor.xhtml HTTP/1.1" 200 220
0:0:0:0:0:0:0:1 - - [15/Oct/2017:21:33:19 -0200] "POST /jsf-livraria/autor.xhtml HTTP/1.1" 200 220
0:0:0:0:0:0:0:1 - - [15/Oct/2017:21:33:23 -0200] "POST /jsf-livraria/autor.xhtml HTTP/1.1" 200 3321
0:0:0:0:0:0:0:1 - - [15/Oct/2017:21:33:38 -0200] "POST /jsf-livraria/autor.xhtml HTTP/1.1" 200 2739
0:0:0:0:0:0:0:1 - - [15/Oct/2017:21:33:40 -0200] "POST /jsf-livraria/autor.xhtml HTTP/1.1" 200 261
0:0:0:0:0:0:0:1 - - [15/Oct/2017:21:33:41 -0200] "POST /jsf-livraria/autor.xhtml HTTP/1.1" 200 261
0:0:0:0:0:0:0:1 - - [15/Oct/2017:21:33:42 -0200] "POST /jsf-livraria/autor.xhtml HTTP/1.1" 200 261
0:0:0:0:0:0:0:1 - - [15/Oct/2017:21:35:02 -0200] "GET /jsf-livraria/autor.xhtml HTTP/1.1" 200 5374
0:0:0:0:0:0:0:1 - - [15/Oct/2017:21:35:02 -0200] "GET /jsf-livraria/javax.faces.resource/jsf.js.xhtml?ln=javax.faces HTTP/1.1" 304 -
0:0:0:0:0:0:0:1 - - [15/Oct/2017:21:35:06 -0200] "POST /jsf-livraria/autor.xhtml HTTP/1.1" 302 -
0:0:0:0:0:0:0:1 - - [15/Oct/2017:21:35:06 -0200] "GET /jsf-livraria/login.xhtml HTTP/1.1" 200 3743
0:0:0:0:0:0:0:1 - - [15/Oct/2017:21:35:07 -0200] "POST /jsf-livraria/login.xhtml HTTP/1.1" 200 151
0:0:0:0:0:0:0:1 - - [15/Oct/2017:21:35:08 -0200] "GET /jsf-livraria/livro.xhtml HTTP/1.1" 200 4057
0:0:0:0:0:0:0:1 - - [15/Oct/2017:21:35:08 -0200] "GET /jsf-livraria/javax.faces.resource/jsf.js.xhtml?ln=javax.faces HTTP/1.1" 304 -
0:0:0:0:0:0:0:1 - - [15/Oct/2017:21:35:10 -0200] "POST /jsf-livraria/livro.xhtml HTTP/1.1" 302 -
0:0:0:0:0:0:0:1 - - [15/Oct/2017:21:35:10 -0200] "GET /jsf-livraria/autor.xhtml HTTP/1.1" 200 5374
0:0:0:0:0:0:0:1 - - [15/Oct/2017:21:35:10 -0200] "GET /jsf-livraria/javax.faces.resource/jsf.js.xhtml?ln=javax.faces HTTP/1.1" 304 -
0:0:0:0:0:0:0:1 - - [15/Oct/2017:21:35:16 -0200] "POST /jsf-livraria/autor.xhtml HTTP/1.1" 200 350
0:0:0:0:0:0:0:1 - - [15/Oct/2017:21:35:22 -0200] "POST /jsf-livraria/autor.xhtml HTTP/1.1" 200 352
0:0:0:0:0:0:0:1 - - [15/Oct/2017:21:35:23 -0200] "POST /jsf-livraria/autor.xhtml HTTP/1.1" 200 151
0:0:0:0:0:0:0:1 - - [15/Oct/2017:21:35:23 -0200] "GET /jsf-livraria/livro.xhtml HTTP/1.1" 200 4100
0:0:0:0:0:0:0:1 - - [15/Oct/2017:21:35:23 -0200] "GET /jsf-livraria/javax.faces.resource/jsf.js.xhtml?ln=javax.faces HTTP/1.1" 304 -
0:0:0:0:0:0:0:1 - - [15/Oct/2017:21:35:25 -0200] "POST /jsf-livraria/livro.xhtml HTTP/1.1" 302 -
0:0:0:0:0:0:0:1 - - [15/Oct/2017:21:35:25 -0200] "GET /jsf-livraria/autor.xhtml HTTP/1.1" 200 5987
0:0:0:0:0:0:0:1 - - [15/Oct/2017:21:35:25 -0200] "GET /jsf-livraria/javax.faces.resource/jsf.js.xhtml?ln=javax.faces HTTP/1.1" 304 -
0:0:0:0:0:0:0:1 - - [15/Oct/2017:21:35:30 -0200] "POST /jsf-livraria/autor.xhtml HTTP/1.1" 200 351
0:0:0:0:0:0:0:1 - - [15/Oct/2017:21:35:41 -0200] "POST /jsf-livraria/autor.xhtml HTTP/1.1" 200 353
0:0:0:0:0:0:0:1 - - [15/Oct/2017:21:35:41 -0200] "POST /jsf-livraria/autor.xhtml HTTP/1.1" 200 151
0:0:0:0:0:0:0:1 - - [15/Oct/2017:21:35:41 -0200] "GET /jsf-livraria/livro.xhtml HTTP/1.1" 200 4134
0:0:0:0:0:0:0:1 - - [15/Oct/2017:21:35:41 -0200] "GET /jsf-livraria/javax.faces.resource/jsf.js.xhtml?ln=javax.faces HTTP/1.1" 304 -
0:0:0:0:0:0:0:1 - - [15/Oct/2017:21:35:42 -0200] "POST /jsf-livraria/livro.xhtml HTTP/1.1" 302 -
0:0:0:0:0:0:0:1 - - [15/Oct/2017:21:35:42 -0200] "GET /jsf-livraria/autor.xhtml HTTP/1.1" 200 6573
0:0:0:0:0:0:0:1 - - [15/Oct/2017:21:35:43 -0200] "GET /jsf-livraria/javax.faces.resource/jsf.js.xhtml?ln=javax.faces HTTP/1.1" 304 -
0:0:0:0:0:0:0:1 - - [15/Oct/2017:21:35:46 -0200] "POST /jsf-livraria/autor.xhtml HTTP/1.1" 200 222
0:0:0:0:0:0:0:1 - - [15/Oct/2017:21:35:50 -0200] "POST /jsf-livraria/autor.xhtml HTTP/1.1" 200 222
0:0:0:0:0:0:0:1 - - [15/Oct/2017:21:38:03 -0200] "GET /jsf-livraria/autor.xhtml HTTP/1.1" 500 4018
0:0:0:0:0:0:0:1 - - [15/Oct/2017:21:39:13 -0200] "GET /jsf-livraria/autor.xhtml HTTP/1.1" 200 6638
0:0:0:0:0:0:0:1 - - [15/Oct/2017:21:39:13 -0200] "GET /jsf-livraria/javax.faces.resource/jsf.js.xhtml?ln=javax.faces HTTP/1.1" 304 -
0:0:0:0:0:0:0:1 - - [15/Oct/2017:21:39:17 -0200] "POST /jsf-livraria/autor.xhtml HTTP/1.1" 200 2259
0:0:0:0:0:0:0:1 - - [15/Oct/2017:21:39:19 -0200] "POST /jsf-livraria/autor.xhtml HTTP/1.1" 200 2259
0:0:0:0:0:0:0:1 - - [15/Oct/2017:21:40:11 -0200] "POST /jsf-livraria/autor.xhtml HTTP/1.1" 200 2259
0:0:0:0:0:0:0:1 - - [15/Oct/2017:21:40:25 -0200] "POST /jsf-livraria/autor.xhtml HTTP/1.1" 200 2259
0:0:0:0:0:0:0:1 - - [15/Oct/2017:21:40:32 -0200] "POST /jsf-livraria/autor.xhtml HTTP/1.1" 200 2259
0:0:0:0:0:0:0:1 - - [15/Oct/2017:21:40:35 -0200] "POST /jsf-livraria/autor.xhtml HTTP/1.1" 200 605
0:0:0:0:0:0:0:1 - - [15/Oct/2017:21:40:37 -0200] "POST /jsf-livraria/autor.xhtml HTTP/1.1" 200 605
0:0:0:0:0:0:0:1 - - [15/Oct/2017:21:41:15 -0200] "POST /jsf-livraria/autor.xhtml HTTP/1.1" 200 605
0:0:0:0:0:0:0:1 - - [15/Oct/2017:21:49:56 -0200] "POST /jsf-livraria/autor.xhtml HTTP/1.1" 200 605
0:0:0:0:0:0:0:1 - - [15/Oct/2017:21:49:57 -0200] "GET /jsf-livraria/autor.xhtml HTTP/1.1" 500 4562
0:0:0:0:0:0:0:1 - - [15/Oct/2017:21:50:03 -0200] "GET /jsf-livraria/autor.xhtml HTTP/1.1" 500 4562
0:0:0:0:0:0:0:1 - - [15/Oct/2017:21:51:18 -0200] "GET /jsf-livraria/autor.xhtml HTTP/1.1" 200 7953
0:0:0:0:0:0:0:1 - - [15/Oct/2017:21:51:18 -0200] "GET /jsf-livraria/javax.faces.resource/jsf.js.xhtml?ln=javax.faces HTTP/1.1" 304 -
0:0:0:0:0:0:0:1 - - [15/Oct/2017:21:52:01 -0200] "GET /jsf-livraria/autor.xhtml HTTP/1.1" 200 7971
0:0:0:0:0:0:0:1 - - [15/Oct/2017:21:52:01 -0200] "GET /jsf-livraria/javax.faces.resource/jsf.js.xhtml?ln=javax.faces HTTP/1.1" 304 -
0:0:0:0:0:0:0:1 - - [15/Oct/2017:21:52:02 -0200] "GET /jsf-livraria/javax.faces.resource/images/ui-icons_38667f_256x240.png.xhtml?ln=primefaces-aristo HTTP/1.1" 200 4369
0:0:0:0:0:0:0:1 - - [15/Oct/2017:21:52:16 -0200] "POST /jsf-livraria/autor.xhtml HTTP/1.1" 200 2740
0:0:0:0:0:0:0:1 - - [15/Oct/2017:21:52:19 -0200] "POST /jsf-livraria/autor.xhtml HTTP/1.1" 200 2724
0:0:0:0:0:0:0:1 - - [15/Oct/2017:21:52:36 -0200] "GET /jsf-livraria/autor.xhtml HTTP/1.1" 200 6260
0:0:0:0:0:0:0:1 - - [15/Oct/2017:21:52:36 -0200] "GET /jsf-livraria/javax.faces.resource/jsf.js.xhtml?ln=javax.faces HTTP/1.1" 304 -
0:0:0:0:0:0:0:1 - - [15/Oct/2017:21:52:40 -0200] "GET /jsf-livraria/autor.xhtml HTTP/1.1" 200 6260
0:0:0:0:0:0:0:1 - - [15/Oct/2017:21:52:40 -0200] "GET /jsf-livraria/javax.faces.resource/jsf.js.xhtml?ln=javax.faces HTTP/1.1" 304 -
0:0:0:0:0:0:0:1 - - [15/Oct/2017:21:53:30 -0200] "GET /jsf-livraria/autor.xhtml HTTP/1.1" 200 6350
0:0:0:0:0:0:0:1 - - [15/Oct/2017:21:53:30 -0200] "GET /jsf-livraria/javax.faces.resource/jsf.js.xhtml?ln=javax.faces HTTP/1.1" 304 -
0:0:0:0:0:0:0:1 - - [15/Oct/2017:21:54:57 -0200] "GET /jsf-livraria/autor.xhtml HTTP/1.1" 200 6495
0:0:0:0:0:0:0:1 - - [15/Oct/2017:21:54:57 -0200] "GET /jsf-livraria/javax.faces.resource/jsf.js.xhtml?ln=javax.faces HTTP/1.1" 304 -
0:0:0:0:0:0:0:1 - - [15/Oct/2017:21:55:18 -0200] "POST /jsf-livraria/autor.xhtml HTTP/1.1" 200 601
0:0:0:0:0:0:0:1 - - [15/Oct/2017:21:55:34 -0200] "POST /jsf-livraria/autor.xhtml HTTP/1.1" 200 601
0:0:0:0:0:0:0:1 - - [15/Oct/2017:21:55:34 -0200] "POST /jsf-livraria/autor.xhtml HTTP/1.1" 302 -
0:0:0:0:0:0:0:1 - - [15/Oct/2017:21:55:34 -0200] "GET /jsf-livraria/login.xhtml HTTP/1.1" 200 3744
0:0:0:0:0:0:0:1 - - [15/Oct/2017:21:56:05 -0200] "POST /jsf-livraria/login.xhtml HTTP/1.1" 200 151
0:0:0:0:0:0:0:1 - - [15/Oct/2017:21:56:05 -0200] "GET /jsf-livraria/livro.xhtml HTTP/1.1" 200 4137
0:0:0:0:0:0:0:1 - - [15/Oct/2017:21:56:05 -0200] "GET /jsf-livraria/javax.faces.resource/jsf.js.xhtml?ln=javax.faces HTTP/1.1" 304 -
0:0:0:0:0:0:0:1 - - [15/Oct/2017:21:56:07 -0200] "POST /jsf-livraria/livro.xhtml HTTP/1.1" 302 -
0:0:0:0:0:0:0:1 - - [15/Oct/2017:21:56:07 -0200] "GET /jsf-livraria/autor.xhtml HTTP/1.1" 200 6492
0:0:0:0:0:0:0:1 - - [15/Oct/2017:21:56:07 -0200] "GET /jsf-livraria/javax.faces.resource/jsf.js.xhtml?ln=javax.faces HTTP/1.1" 304 -
0:0:0:0:0:0:0:1 - - [15/Oct/2017:21:58:36 -0200] "POST /jsf-livraria/autor.xhtml HTTP/1.1" 302 -
0:0:0:0:0:0:0:1 - - [15/Oct/2017:21:58:36 -0200] "GET /jsf-livraria/login.xhtml HTTP/1.1" 200 3742
0:0:0:0:0:0:0:1 - - [15/Oct/2017:21:59:11 -0200] "POST /jsf-livraria/login.xhtml HTTP/1.1" 200 151
0:0:0:0:0:0:0:1 - - [15/Oct/2017:21:59:11 -0200] "GET /jsf-livraria/livro.xhtml HTTP/1.1" 200 4137
0:0:0:0:0:0:0:1 - - [15/Oct/2017:21:59:11 -0200] "GET /jsf-livraria/javax.faces.resource/jsf.js.xhtml?ln=javax.faces HTTP/1.1" 304 -
0:0:0:0:0:0:0:1 - - [15/Oct/2017:21:59:23 -0200] "POST /jsf-livraria/livro.xhtml HTTP/1.1" 302 -
0:0:0:0:0:0:0:1 - - [15/Oct/2017:21:59:23 -0200] "GET /jsf-livraria/autor.xhtml HTTP/1.1" 200 6495
0:0:0:0:0:0:0:1 - - [15/Oct/2017:21:59:24 -0200] "GET /jsf-livraria/javax.faces.resource/jsf.js.xhtml?ln=javax.faces HTTP/1.1" 304 -
